\relax 
\providecommand\hyper@newdestlabel[2]{}
\providecommand\HyField@AuxAddToFields[1]{}
\providecommand\HyField@AuxAddToCoFields[2]{}
\bibstyle{biblatex}
\bibdata{MainDocument-blx,meetinghubBIB}
\citation{biblatex-control}
\abx@aux@refcontext{nty/global//global/global}
\providecommand \oddpage@label [2]{}
\pgfsyspdfmark {pgfid1}{4736286}{47362867}
\@writefile{toc}{\contentsline {section}{\numberline {1}Abbreviations}{10}{section.1}\protected@file@percent }
\@writefile{tdo}{\contentsline {todo}{order them alphabetical}{10}{section*.3}\protected@file@percent }
\pgfsyspdfmark {pgfid2}{30297812}{25788341}
\pgfsyspdfmark {pgfid5}{39363509}{25766060}
\pgfsyspdfmark {pgfid6}{41477044}{25519481}
\@writefile{toc}{\contentsline {section}{\numberline {2}Affidavit}{11}{section.2}\protected@file@percent }
\@writefile{toc}{\contentsline {section}{\numberline {3}Acknowledgements}{12}{section.3}\protected@file@percent }
\@writefile{tdo}{\contentsline {todo}{rewrite}{12}{section*.4}\protected@file@percent }
\pgfsyspdfmark {pgfid7}{26155282}{43122613}
\pgfsyspdfmark {pgfid10}{39363509}{43100332}
\pgfsyspdfmark {pgfid11}{41477044}{42853753}
\@writefile{toc}{\contentsline {part}{I\hspace  {1em}Prelude}{13}{part.1}\protected@file@percent }
\@writefile{toc}{\contentsline {section}{\numberline {4}Abstract - English}{13}{section.4}\protected@file@percent }
\@writefile{toc}{\contentsline {subsection}{\numberline {4.1}Initial solution}{13}{subsection.4.1}\protected@file@percent }
\@writefile{toc}{\contentsline {subsection}{\numberline {4.2}Aim of the project}{13}{subsection.4.2}\protected@file@percent }
\@writefile{toc}{\contentsline {section}{\numberline {5}Abstract - German}{14}{section.5}\protected@file@percent }
\@writefile{toc}{\contentsline {subsection}{\numberline {5.1}Ausgangssituation}{14}{subsection.5.1}\protected@file@percent }
\@writefile{toc}{\contentsline {subsection}{\numberline {5.2}Ziel des Projekts}{14}{subsection.5.2}\protected@file@percent }
\citation{onedrive}
\abx@aux@cite{0}{onedrive}
\abx@aux@segm{0}{0}{onedrive}
\citation{googledrive}
\abx@aux@cite{0}{googledrive}
\abx@aux@segm{0}{0}{googledrive}
\citation{gitlab}
\abx@aux@cite{0}{gitlab}
\abx@aux@segm{0}{0}{gitlab}
\citation{git}
\abx@aux@cite{0}{git}
\abx@aux@segm{0}{0}{git}
\citation{github}
\abx@aux@cite{0}{github}
\abx@aux@segm{0}{0}{github}
\citation{gitbucket}
\abx@aux@cite{0}{gitbucket}
\abx@aux@segm{0}{0}{gitbucket}
\citation{azure}
\abx@aux@cite{0}{azure}
\abx@aux@segm{0}{0}{azure}
\@writefile{toc}{\contentsline {section}{\numberline {6}Used software}{15}{section.6}\protected@file@percent }
\@writefile{toc}{\contentsline {subsection}{\numberline {6.1}GitLab}{15}{subsection.6.1}\protected@file@percent }
\abx@aux@fnpage{1}{15}
\abx@aux@fnpage{2}{15}
\@writefile{toc}{\contentsline {paragraph}{Why GitLab}{15}{section*.5}\protected@file@percent }
\abx@aux@fnpage{3}{15}
\abx@aux@fnpage{4}{15}
\abx@aux@fnpage{5}{15}
\abx@aux@fnpage{6}{15}
\abx@aux@fnpage{7}{15}
\citation{texstudio}
\abx@aux@cite{0}{texstudio}
\abx@aux@segm{0}{0}{texstudio}
\citation{latex}
\abx@aux@cite{0}{latex}
\abx@aux@segm{0}{0}{latex}
\citation{markdown}
\abx@aux@cite{0}{markdown}
\abx@aux@segm{0}{0}{markdown}
\citation{miktex}
\abx@aux@cite{0}{miktex}
\abx@aux@segm{0}{0}{miktex}
\citation{apt}
\abx@aux@cite{0}{apt}
\abx@aux@segm{0}{0}{apt}
\citation{pip}
\abx@aux@cite{0}{pip}
\abx@aux@segm{0}{0}{pip}
\@writefile{lof}{\contentsline {figure}{\numberline {1}{\ignorespaces excerpt of the projects repository graph}}{16}{figure.caption.6}\protected@file@percent }
\providecommand*\caption@xref[2]{\@setref\relax\@undefined{#1}}
\newlabel{gitbranchview}{{1}{16}{excerpt of the projects repository graph}{figure.caption.6}{}}
\@writefile{toc}{\contentsline {subsection}{\numberline {6.2}TeXStudio}{16}{subsection.6.2}\protected@file@percent }
\abx@aux@fnpage{8}{16}
\abx@aux@fnpage{9}{16}
\abx@aux@fnpage{10}{16}
\abx@aux@fnpage{11}{16}
\abx@aux@fnpage{12}{16}
\abx@aux@fnpage{13}{16}
\citation{zotero}
\abx@aux@cite{0}{zotero}
\abx@aux@segm{0}{0}{zotero}
\citation{bibtex}
\abx@aux@cite{0}{bibtex}
\abx@aux@segm{0}{0}{bibtex}
\citation{solidworks}
\abx@aux@cite{0}{solidworks}
\abx@aux@segm{0}{0}{solidworks}
\@writefile{toc}{\contentsline {subsubsection}{\numberline {6.2.1}todonotes package}{17}{subsubsection.6.2.1}\protected@file@percent }
\@writefile{lof}{\contentsline {figure}{\numberline {2}{\ignorespaces Used Fans}}{17}{figure.caption.7}\protected@file@percent }
\@writefile{toc}{\contentsline {subsubsection}{\numberline {6.2.2}Zotero}{17}{subsubsection.6.2.2}\protected@file@percent }
\@writefile{tdo}{\contentsline {todo}{error with figure}{17}{section*.8}\protected@file@percent }
\pgfsyspdfmark {pgfid13}{5594039}{29705096}
\pgfsyspdfmark {pgfid16}{39363509}{29682815}
\pgfsyspdfmark {pgfid17}{41477044}{29436236}
\@writefile{lof}{\contentsline {figure}{\numberline {3}{\ignorespaces icon to save to Zotero, in this case a code}}{17}{figure.caption.9}\protected@file@percent }
\@writefile{toc}{\contentsline {subsubsection}{\numberline {6.2.3}tcolorbox}{17}{subsubsection.6.2.3}\protected@file@percent }
\abx@aux@fnpage{14}{17}
\abx@aux@fnpage{15}{17}
\citation{altium}
\abx@aux@cite{0}{altium}
\abx@aux@segm{0}{0}{altium}
\citation{vscodeicon}
\abx@aux@cite{0}{vscodeicon}
\abx@aux@segm{0}{0}{vscodeicon}
\citation{vscode}
\abx@aux@cite{0}{vscode}
\abx@aux@segm{0}{0}{vscode}
\citation{vs}
\abx@aux@cite{0}{vs}
\abx@aux@segm{0}{0}{vs}
\@writefile{toc}{\contentsline {section}{\numberline {7}Construction software}{18}{section.7}\protected@file@percent }
\@writefile{toc}{\contentsline {subsection}{\numberline {7.1}Solidworks}{18}{subsection.7.1}\protected@file@percent }
\@writefile{toc}{\contentsline {subsection}{\numberline {7.2}Altium}{18}{subsection.7.2}\protected@file@percent }
\@writefile{lof}{\contentsline {figure}{\numberline {4}{\ignorespaces Altium Logo}}{18}{figure.caption.10}\protected@file@percent }
\@writefile{toc}{\contentsline {section}{\numberline {8}Coding Software}{18}{section.8}\protected@file@percent }
\@writefile{toc}{\contentsline {subsection}{\numberline {8.1}Visual Studio Code}{18}{subsection.8.1}\protected@file@percent }
\@writefile{lof}{\contentsline {figure}{\numberline {5}{\ignorespaces VSCode Logo\blx@tocontentsinit {0}\autocite {vscodeicon}}}{18}{figure.caption.11}\protected@file@percent }
\@writefile{tdo}{\contentsline {todo}{fix this shit, more text}{18}{section*.12}\protected@file@percent }
\pgfsyspdfmark {pgfid19}{5594039}{21620735}
\pgfsyspdfmark {pgfid22}{39363509}{21598454}
\pgfsyspdfmark {pgfid23}{41477044}{21351875}
\@writefile{toc}{\contentsline {subsubsection}{\numberline {8.1.1}Remote Debugging Extension}{18}{subsubsection.8.1.1}\protected@file@percent }
\@writefile{toc}{\contentsline {subsection}{\numberline {8.2}Visual Studio}{18}{subsection.8.2}\protected@file@percent }
\abx@aux@fnpage{16}{18}
\abx@aux@fnpage{17}{18}
\abx@aux@fnpage{19}{18}
\abx@aux@fnpage{20}{18}
\citation{termiusicon}
\abx@aux@cite{0}{termiusicon}
\abx@aux@segm{0}{0}{termiusicon}
\citation{termius}
\abx@aux@cite{0}{termius}
\abx@aux@segm{0}{0}{termius}
\citation{milegit}
\abx@aux@cite{0}{milegit}
\abx@aux@segm{0}{0}{milegit}
\citation{clockify}
\abx@aux@cite{0}{clockify}
\abx@aux@segm{0}{0}{clockify}
\@writefile{tdo}{\contentsline {todo}{ref to client}{19}{section*.13}\protected@file@percent }
\pgfsyspdfmark {pgfid24}{13953804}{45186274}
\pgfsyspdfmark {pgfid27}{39363509}{45094658}
\pgfsyspdfmark {pgfid28}{41477044}{44848079}
\@writefile{toc}{\contentsline {subsection}{\numberline {8.3}Termius}{19}{subsection.8.3}\protected@file@percent }
\@writefile{lof}{\contentsline {figure}{\numberline {6}{\ignorespaces Termius Logo\blx@tocontentsinit {0}\autocite {termiusicon}}}{19}{figure.caption.14}\protected@file@percent }
\@writefile{toc}{\contentsline {section}{\numberline {9}Time tracking}{19}{section.9}\protected@file@percent }
\@writefile{toc}{\contentsline {subsubsection}{\numberline {9.0.1}Gitlab}{19}{subsubsection.9.0.1}\protected@file@percent }
\@writefile{tdo}{\contentsline {todo}{rework}{19}{section*.15}\protected@file@percent }
\pgfsyspdfmark {pgfid29}{5594039}{34727727}
\pgfsyspdfmark {pgfid32}{39363509}{34705446}
\pgfsyspdfmark {pgfid33}{41477044}{34458867}
\@writefile{lof}{\contentsline {figure}{\numberline {7}{\ignorespaces selected GitLab milestones}}{19}{figure.caption.16}\protected@file@percent }
\@writefile{toc}{\contentsline {subsubsection}{\numberline {9.0.2}Clockify}{19}{subsubsection.9.0.2}\protected@file@percent }
\@writefile{tdo}{\contentsline {todo}{Link to time tracking sheet}{19}{section*.17}\protected@file@percent }
\pgfsyspdfmark {pgfid34}{10375029}{15428992}
\pgfsyspdfmark {pgfid37}{39363509}{15406711}
\pgfsyspdfmark {pgfid38}{41477044}{15160132}
\abx@aux@fnpage{22}{19}
\abx@aux@fnpage{23}{19}
\abx@aux@fnpage{24}{19}
\@writefile{toc}{\contentsline {part}{II\hspace  {1em}Requirements}{20}{part.2}\protected@file@percent }
\@writefile{toc}{\contentsline {section}{\numberline {10}Product Requirements Document}{20}{section.10}\protected@file@percent }
\@writefile{toc}{\contentsline {subsection}{\numberline {10.1}Introduction}{20}{subsection.10.1}\protected@file@percent }
\@writefile{toc}{\contentsline {subsection}{\numberline {10.2}Initial situation}{20}{subsection.10.2}\protected@file@percent }
\@writefile{toc}{\contentsline {subsection}{\numberline {10.3}Target situation}{20}{subsection.10.3}\protected@file@percent }
\@writefile{toc}{\contentsline {subsection}{\numberline {10.4}Use cases}{20}{subsection.10.4}\protected@file@percent }
\@writefile{toc}{\contentsline {subsection}{\numberline {10.5}Interfaces}{21}{subsection.10.5}\protected@file@percent }
\@writefile{toc}{\contentsline {subsection}{\numberline {10.6}System requirements}{21}{subsection.10.6}\protected@file@percent }
\@writefile{toc}{\contentsline {subsection}{\numberline {10.7}Quality requirements}{21}{subsection.10.7}\protected@file@percent }
\@writefile{toc}{\contentsline {subsection}{\numberline {10.8}Risks}{21}{subsection.10.8}\protected@file@percent }
\@writefile{toc}{\contentsline {section}{\numberline {11}Required basics}{22}{section.11}\protected@file@percent }
\@writefile{tdo}{\contentsline {todo}{@rusch needed?}{22}{section*.18}\protected@file@percent }
\pgfsyspdfmark {pgfid39}{5594039}{44302261}
\pgfsyspdfmark {pgfid42}{39363509}{44279980}
\pgfsyspdfmark {pgfid43}{41477044}{44033401}
\@writefile{toc}{\contentsline {subsection}{\numberline {11.1}H-Bridge}{22}{subsection.11.1}\protected@file@percent }
\@writefile{toc}{\contentsline {subsection}{\numberline {11.2}I2C}{22}{subsection.11.2}\protected@file@percent }
\@writefile{toc}{\contentsline {subsection}{\numberline {11.3}API}{22}{subsection.11.3}\protected@file@percent }
\@writefile{toc}{\contentsline {part}{III\hspace  {1em}Developing Concept}{23}{part.3}\protected@file@percent }
\@writefile{toc}{\contentsline {section}{\numberline {12}Project planning}{23}{section.12}\protected@file@percent }
\@writefile{lof}{\contentsline {figure}{\numberline {8}{\ignorespaces milestones}}{23}{figure.caption.19}\protected@file@percent }
\@writefile{toc}{\contentsline {section}{\numberline {13}SMART Analyse}{23}{section.13}\protected@file@percent }
\@writefile{tdo}{\contentsline {todo}{@rusch needed?}{23}{section*.20}\protected@file@percent }
\pgfsyspdfmark {pgfid44}{5594039}{5296162}
\pgfsyspdfmark {pgfid47}{39363509}{5273881}
\pgfsyspdfmark {pgfid48}{41477044}{5027302}
\@writefile{toc}{\contentsline {section}{\numberline {14}Goals}{24}{section.14}\protected@file@percent }
\@writefile{toc}{\contentsline {subsection}{\numberline {14.1}Must have}{24}{subsection.14.1}\protected@file@percent }
\@writefile{toc}{\contentsline {subsection}{\numberline {14.2}Nice to have}{24}{subsection.14.2}\protected@file@percent }
\@writefile{toc}{\contentsline {subsection}{\numberline {14.3}Not have}{24}{subsection.14.3}\protected@file@percent }
\@writefile{toc}{\contentsline {section}{\numberline {15}Project Team}{24}{section.15}\protected@file@percent }
\@writefile{tdo}{\contentsline {todo}{@rusch needed?}{24}{section*.21}\protected@file@percent }
\pgfsyspdfmark {pgfid49}{5594039}{18618982}
\pgfsyspdfmark {pgfid52}{39363509}{18596701}
\pgfsyspdfmark {pgfid53}{41477044}{18350122}
\@writefile{toc}{\contentsline {subsection}{\numberline {15.1}Supervising teacher}{24}{subsection.15.1}\protected@file@percent }
\@writefile{toc}{\contentsline {subsection}{\numberline {15.2}Project members}{24}{subsection.15.2}\protected@file@percent }
\@writefile{toc}{\contentsline {section}{\numberline {16}Functional overview}{25}{section.16}\protected@file@percent }
\@writefile{toc}{\contentsline {subsection}{\numberline {16.1}Control interface}{25}{subsection.16.1}\protected@file@percent }
\@writefile{toc}{\contentsline {subsection}{\numberline {16.2}Height of the table}{25}{subsection.16.2}\protected@file@percent }
\@writefile{toc}{\contentsline {subsection}{\numberline {16.3}Camera control}{25}{subsection.16.3}\protected@file@percent }
\@writefile{toc}{\contentsline {subsubsection}{\numberline {16.3.1}Microphone control}{25}{subsubsection.16.3.1}\protected@file@percent }
\@writefile{toc}{\contentsline {subsection}{\numberline {16.4}Lighting situation}{25}{subsection.16.4}\protected@file@percent }
\@writefile{toc}{\contentsline {section}{\numberline {17}Operations concept}{25}{section.17}\protected@file@percent }
\@writefile{toc}{\contentsline {subsection}{\numberline {17.1}Hotkeys}{25}{subsection.17.1}\protected@file@percent }
\@writefile{tdo}{\contentsline {todo}{rework depending if hotkey function is changed}{25}{section*.22}\protected@file@percent }
\pgfsyspdfmark {pgfid54}{5594039}{11197199}
\pgfsyspdfmark {pgfid57}{39363509}{11174918}
\pgfsyspdfmark {pgfid58}{41477044}{10928339}
\@writefile{toc}{\contentsline {subsection}{\numberline {17.2}Tablet}{26}{subsection.17.2}\protected@file@percent }
\@writefile{tdo}{\contentsline {todo}{rework if client done}{26}{section*.23}\protected@file@percent }
\pgfsyspdfmark {pgfid59}{5594039}{39536745}
\pgfsyspdfmark {pgfid62}{39363509}{39514464}
\pgfsyspdfmark {pgfid63}{41477044}{39267885}
\@writefile{toc}{\contentsline {subsection}{\numberline {17.3}Client}{26}{subsection.17.3}\protected@file@percent }
\@writefile{tdo}{\contentsline {todo}{rework}{26}{section*.24}\protected@file@percent }
\pgfsyspdfmark {pgfid64}{31074412}{34098409}
\pgfsyspdfmark {pgfid67}{39363509}{34076128}
\pgfsyspdfmark {pgfid68}{41477044}{33829549}
\@writefile{toc}{\contentsline {section}{\numberline {18}Software concept}{27}{section.18}\protected@file@percent }
\@writefile{toc}{\contentsline {subsection}{\numberline {18.1}Firmware concept}{27}{subsection.18.1}\protected@file@percent }
\@writefile{toc}{\contentsline {subsection}{\numberline {18.2}Client concept}{27}{subsection.18.2}\protected@file@percent }
\@writefile{toc}{\contentsline {part}{IV\hspace  {1em}Technical Documentation}{28}{part.4}\protected@file@percent }
\@writefile{toc}{\contentsline {section}{\numberline {19}Technical overview}{28}{section.19}\protected@file@percent }
\@writefile{lof}{\contentsline {figure}{\numberline {9}{\ignorespaces General view of the desk}}{28}{figure.caption.25}\protected@file@percent }
\@writefile{lof}{\contentsline {figure}{\numberline {10}{\ignorespaces X-Ray view of the Desk from the bottom to the top}}{29}{figure.caption.26}\protected@file@percent }
\@writefile{tdo}{\contentsline {todo}{redo picture}{29}{section*.27}\protected@file@percent }
\pgfsyspdfmark {pgfid69}{5594039}{23317299}
\pgfsyspdfmark {pgfid72}{39363509}{23295018}
\pgfsyspdfmark {pgfid73}{41477044}{23048439}
\@writefile{lof}{\contentsline {figure}{\numberline {11}{\ignorespaces X-Ray view of the Desktop}}{29}{figure.caption.28}\protected@file@percent }
\citation{noctua80mm}
\abx@aux@cite{0}{noctua80mm}
\abx@aux@segm{0}{0}{noctua80mm}
\@writefile{tdo}{\contentsline {todo}{redo picture}{30}{section*.29}\protected@file@percent }
\pgfsyspdfmark {pgfid74}{5594039}{45186274}
\pgfsyspdfmark {pgfid77}{39363509}{45094658}
\pgfsyspdfmark {pgfid78}{41477044}{44848079}
\@writefile{toc}{\contentsline {subsection}{\numberline {19.1}Right Compartment}{30}{subsection.19.1}\protected@file@percent }
\@writefile{toc}{\contentsline {subsubsection}{\numberline {19.1.1}Fans}{30}{subsubsection.19.1.1}\protected@file@percent }
\@writefile{lof}{\contentsline {figure}{\numberline {12}{\ignorespaces right compartment Airflow}}{30}{figure.caption.30}\protected@file@percent }
\newlabel{fansRightCOMP}{{12}{30}{right compartment Airflow}{figure.caption.30}{}}
\@writefile{toc}{\contentsline {paragraph}{80mm Fans}{30}{section*.31}\protected@file@percent }
\@writefile{toc}{\contentsline {paragraph}{40mm Fans}{30}{section*.32}\protected@file@percent }
\@writefile{tdo}{\contentsline {todo}{reference to software where fans are controlled}{30}{section*.33}\protected@file@percent }
\pgfsyspdfmark {pgfid79}{34425785}{11869774}
\pgfsyspdfmark {pgfid82}{39363509}{11847493}
\pgfsyspdfmark {pgfid83}{41477044}{11600914}
\abx@aux@fnpage{25}{30}
\newlabel{40mmfanPIC}{{13a}{31}{Noctua 40mm Fan}{figure.caption.34}{}}
\newlabel{sub@40mmfanPIC}{{a}{31}{Noctua 40mm Fan}{figure.caption.34}{}}
\@writefile{lof}{\contentsline {figure}{\numberline {13}{\ignorespaces Used Fans}}{31}{figure.caption.34}\protected@file@percent }
\@writefile{toc}{\contentsline {paragraph}{Air in the Right compartment}{31}{section*.35}\protected@file@percent }
\@writefile{toc}{\contentsline {paragraph}{Air in the Left compartment}{31}{section*.36}\protected@file@percent }
\citation{atemmini}
\abx@aux@cite{0}{atemmini}
\abx@aux@segm{0}{0}{atemmini}
\citation{blackmagic}
\abx@aux@cite{0}{blackmagic}
\abx@aux@segm{0}{0}{blackmagic}
\@writefile{toc}{\contentsline {subsubsection}{\numberline {19.1.2}Blackmagic Design ATEM Mini Pro}{32}{subsubsection.19.1.2}\protected@file@percent }
\newlabel{atemsection}{{19.1.2}{32}{Blackmagic Design\space \atem }{subsubsection.19.1.2}{}}
\@writefile{lof}{\contentsline {figure}{\numberline {14}{\ignorespaces ATEM Mini Pro}}{32}{figure.caption.37}\protected@file@percent }
\newlabel{atempicture}{{14}{32}{\atem }{figure.caption.37}{}}
\@writefile{tdo}{\contentsline {todo}{reference on camera}{32}{section*.38}\protected@file@percent }
\pgfsyspdfmark {pgfid84}{33803208}{27174335}
\pgfsyspdfmark {pgfid87}{39363509}{27152054}
\pgfsyspdfmark {pgfid88}{41477044}{26905475}
\@writefile{toc}{\contentsline {paragraph}{ATEM Software Control}{32}{section*.39}\protected@file@percent }
\@writefile{toc}{\contentsline {paragraph}{Needed disassembly}{32}{section*.40}\protected@file@percent }
\abx@aux@fnpage{26}{32}
\abx@aux@fnpage{27}{32}
\@writefile{lof}{\contentsline {figure}{\numberline {15}{\ignorespaces ATEM Mini Pro disassembled}}{33}{figure.caption.41}\protected@file@percent }
\@writefile{tdo}{\contentsline {todo}{quelle angeben}{33}{section*.42}\protected@file@percent }
\pgfsyspdfmark {pgfid90}{5594039}{18539963}
\pgfsyspdfmark {pgfid93}{39363509}{18517682}
\pgfsyspdfmark {pgfid94}{41477044}{18271103}
\@writefile{lof}{\contentsline {figure}{\numberline {16}{\ignorespaces ATEM Mini Pro mainboard}}{33}{figure.caption.43}\protected@file@percent }
\citation{rasp3b+}
\abx@aux@cite{0}{rasp3b+}
\abx@aux@segm{0}{0}{rasp3b+}
\citation{arm}
\abx@aux@cite{0}{arm}
\abx@aux@segm{0}{0}{arm}
\citation{cytron}
\abx@aux@cite{0}{cytron}
\abx@aux@segm{0}{0}{cytron}
\citation{cytronDS}
\abx@aux@cite{0}{cytronDS}
\abx@aux@segm{0}{0}{cytronDS}
\@writefile{toc}{\contentsline {subsubsection}{\numberline {19.1.3}Raspberry Pi}{34}{subsubsection.19.1.3}\protected@file@percent }
\@writefile{tdo}{\contentsline {todo}{refer to software}{34}{section*.44}\protected@file@percent }
\pgfsyspdfmark {pgfid95}{29075569}{31687010}
\pgfsyspdfmark {pgfid98}{39363509}{31664729}
\pgfsyspdfmark {pgfid99}{41477044}{31418150}
\@writefile{toc}{\contentsline {subsubsection}{\numberline {19.1.4}Cytron MD10C}{34}{subsubsection.19.1.4}\protected@file@percent }
\newlabel{CytronMCU}{{19.1.4}{34}{Cytron MD10C}{subsubsection.19.1.4}{}}
\abx@aux@fnpage{28}{34}
\abx@aux@fnpage{29}{34}
\abx@aux@fnpage{30}{34}
\abx@aux@fnpage{31}{34}
\citation{rasprecpsu}
\abx@aux@cite{0}{rasprecpsu}
\abx@aux@segm{0}{0}{rasprecpsu}
\citation{noctua80mmspec}
\abx@aux@cite{0}{noctua80mmspec}
\abx@aux@segm{0}{0}{noctua80mmspec}
\citation{np_bx1Dummy}
\abx@aux@cite{0}{np_bx1Dummy}
\abx@aux@segm{0}{0}{np_bx1Dummy}
\@writefile{lof}{\contentsline {figure}{\numberline {17}{\ignorespaces Maximum Ratings of MD10C}}{35}{figure.caption.45}\protected@file@percent }
\newlabel{MCUsection}{{19.1.4}{35}{Cytron MD10C}{figure.caption.45}{}}
\@writefile{toc}{\contentsline {subsubsection}{\numberline {19.1.5}Power Supplies}{35}{subsubsection.19.1.5}\protected@file@percent }
\newlabel{5VPSU}{{19.1.5}{35}{5V Power Supply}{section*.46}{}}
\@writefile{lof}{\contentsline {figure}{\numberline {18}{\ignorespaces 5V PSU}}{35}{figure.caption.47}\protected@file@percent }
\@writefile{toc}{\contentsline {paragraph}{5V Power Supply}{35}{figure.caption.47}\protected@file@percent }
\citation{5vpsu}
\abx@aux@cite{0}{5vpsu}
\abx@aux@segm{0}{0}{5vpsu}
\citation{5vpsuDS}
\abx@aux@cite{0}{5vpsuDS}
\abx@aux@segm{0}{0}{5vpsuDS}
\@writefile{lot}{\contentsline {table}{\numberline {1}{\ignorespaces needed current}}{36}{table.caption.48}\protected@file@percent }
\@writefile{tdo}{\contentsline {todo}{imput the current needed for the desklight}{36}{section*.49}\protected@file@percent }
\pgfsyspdfmark {pgfid100}{5594039}{35556269}
\pgfsyspdfmark {pgfid103}{39363509}{35533988}
\pgfsyspdfmark {pgfid104}{41477044}{35287409}
\newlabel{atempsusection}{{19.1.5}{36}{12V Power Supply}{section*.50}{}}
\@writefile{toc}{\contentsline {paragraph}{12V Power Supply}{36}{section*.50}\protected@file@percent }
\abx@aux@fnpage{35}{36}
\abx@aux@fnpage{36}{36}
\@writefile{lof}{\contentsline {figure}{\numberline {20}{\ignorespaces connected PSU}}{37}{figure.caption.52}\protected@file@percent }
\@writefile{toc}{\contentsline {subsection}{\numberline {19.2}Left Compartment}{37}{subsection.19.2}\protected@file@percent }
\@writefile{toc}{\contentsline {subsubsection}{\numberline {19.2.1}Thunderbolt Dock}{37}{subsubsection.19.2.1}\protected@file@percent }
\newlabel{thdsection}{{19.2.1}{37}{Thunderbolt Dock}{subsubsection.19.2.1}{}}
\@writefile{tdo}{\contentsline {todo}{reference to monitor chapter}{37}{section*.53}\protected@file@percent }
\pgfsyspdfmark {pgfid106}{8169266}{9234026}
\pgfsyspdfmark {pgfid109}{39363509}{9211745}
\pgfsyspdfmark {pgfid110}{41477044}{8965166}
\@writefile{tdo}{\contentsline {todo}{reference to atem chapter}{37}{section*.54}\protected@file@percent }
\pgfsyspdfmark {pgfid111}{8277410}{8054378}
\pgfsyspdfmark {pgfid114}{39363509}{5299445}
\pgfsyspdfmark {pgfid115}{41477044}{5052866}
\citation{dockpsu}
\abx@aux@cite{0}{dockpsu}
\abx@aux@segm{0}{0}{dockpsu}
\citation{rbdtech}
\abx@aux@cite{0}{rbdtech}
\abx@aux@segm{0}{0}{rbdtech}
\@writefile{toc}{\contentsline {paragraph}{Why this dock}{38}{section*.55}\protected@file@percent }
\@writefile{toc}{\contentsline {subsubsection}{\numberline {19.2.2}Power supplies}{38}{subsubsection.19.2.2}\protected@file@percent }
\@writefile{toc}{\contentsline {paragraph}{Dock power supply}{38}{section*.56}\protected@file@percent }
\@writefile{tdo}{\contentsline {todo}{add reference to mounting section}{38}{section*.57}\protected@file@percent }
\pgfsyspdfmark {pgfid116}{9349904}{31701595}
\pgfsyspdfmark {pgfid119}{39363509}{31679314}
\pgfsyspdfmark {pgfid120}{41477044}{31432735}
\@writefile{toc}{\contentsline {paragraph}{Motor power supply}{38}{section*.58}\protected@file@percent }
\@writefile{toc}{\contentsline {subsection}{\numberline {19.3}Monitor Stand}{38}{subsection.19.3}\protected@file@percent }
\@writefile{toc}{\contentsline {subsubsection}{\numberline {19.3.1}Camera}{38}{subsubsection.19.3.1}\protected@file@percent }
\@writefile{toc}{\contentsline {subsubsection}{\numberline {19.3.2}Microphone}{38}{subsubsection.19.3.2}\protected@file@percent }
\@writefile{toc}{\contentsline {subsubsection}{\numberline {19.3.3}Monitor}{38}{subsubsection.19.3.3}\protected@file@percent }
\@writefile{toc}{\contentsline {subsubsection}{\numberline {19.3.4}Lights}{38}{subsubsection.19.3.4}\protected@file@percent }
\abx@aux@fnpage{37}{38}
\abx@aux@fnpage{38}{38}
\@writefile{toc}{\contentsline {section}{\numberline {20}Base Table}{39}{section.20}\protected@file@percent }
\@writefile{tdo}{\contentsline {todo}{better wording}{39}{section*.60}\protected@file@percent }
\pgfsyspdfmark {pgfid121}{25942975}{40763317}
\@writefile{lof}{\contentsline {figure}{\numberline {21}{\ignorespaces Table Versions}}{39}{figure.caption.59}\protected@file@percent }
\pgfsyspdfmark {pgfid124}{39363509}{21653262}
\pgfsyspdfmark {pgfid125}{41477044}{21406683}
\@writefile{tdo}{\contentsline {todo}{abklären was wirklich}{39}{section*.61}\protected@file@percent }
\pgfsyspdfmark {pgfid126}{32295575}{17097852}
\pgfsyspdfmark {pgfid129}{39363509}{17075571}
\pgfsyspdfmark {pgfid130}{41477044}{16828992}
\@writefile{lof}{\contentsline {figure}{\numberline {22}{\ignorespaces Drawing of tabletop}}{40}{figure.caption.62}\protected@file@percent }
\@writefile{lof}{\contentsline {figure}{\numberline {23}{\ignorespaces Raw tabletop, with compartment walls}}{40}{figure.caption.63}\protected@file@percent }
\newlabel{tableraw}{{23}{40}{Raw tabletop, with compartment walls}{figure.caption.63}{}}
\citation{sailer2009comparative}
\abx@aux@cite{0}{sailer2009comparative}
\abx@aux@segm{0}{0}{sailer2009comparative}
\@writefile{tdo}{\contentsline {todo}{Figure: "picture of 3 desks together"}{41}{figure.caption.63}\protected@file@percent }
\@writefile{toc}{\contentsline {section}{\numberline {21}Compartments}{41}{section.21}\protected@file@percent }
\@writefile{lof}{\contentsline {figure}{\numberline {24}{\ignorespaces Raw tabletop, with compartment walls glued}}{41}{figure.caption.64}\protected@file@percent }
\abx@aux@fnpage{39}{41}
\@writefile{lof}{\contentsline {figure}{\numberline {25}{\ignorespaces Devices mounted to the desk}}{42}{figure.caption.65}\protected@file@percent }
\newlabel{devicemounted}{{25}{42}{Devices mounted to the desk}{figure.caption.65}{}}
\@writefile{lof}{\contentsline {figure}{\numberline {26}{\ignorespaces Brakets securing parts such as PSU}}{42}{figure.caption.66}\protected@file@percent }
\@writefile{tdo}{\contentsline {todo}{Figure: "overview of both comparments"}{42}{figure.caption.66}\protected@file@percent }
\@writefile{toc}{\contentsline {section}{\numberline {22}Central area of the desk}{43}{section.22}\protected@file@percent }
\@writefile{toc}{\contentsline {subsection}{\numberline {22.1}Ethernet Switch}{43}{subsection.22.1}\protected@file@percent }
\@writefile{lof}{\contentsline {figure}{\numberline {27}{\ignorespaces Ethernet Switch}}{44}{figure.caption.67}\protected@file@percent }
\@writefile{toc}{\contentsline {section}{\numberline {23}operating terminal}{44}{section.23}\protected@file@percent }
\@writefile{toc}{\contentsline {subsection}{\numberline {23.1}Hotkeys}{44}{subsection.23.1}\protected@file@percent }
\@writefile{toc}{\contentsline {subsection}{\numberline {23.2}Status Screen}{44}{subsection.23.2}\protected@file@percent }
\@writefile{toc}{\contentsline {section}{\numberline {24}Microcontrollers}{45}{section.24}\protected@file@percent }
\@writefile{toc}{\contentsline {subsection}{\numberline {24.1}Topology}{45}{subsection.24.1}\protected@file@percent }
\@writefile{tdo}{\contentsline {todo}{Add sections for v1 and v2}{45}{section*.68}\protected@file@percent }
\pgfsyspdfmark {pgfid133}{5594039}{42388284}
\pgfsyspdfmark {pgfid136}{39363509}{42366003}
\pgfsyspdfmark {pgfid137}{41477044}{42119424}
\@writefile{toc}{\contentsline {subsubsection}{\numberline {24.1.1}v1 - Development version}{45}{subsubsection.24.1.1}\protected@file@percent }
\@writefile{lof}{\contentsline {figure}{\numberline {28}{\ignorespaces Microcontroller topology version 1}}{45}{figure.caption.69}\protected@file@percent }
\@writefile{toc}{\contentsline {subsubsection}{\numberline {24.1.2}v2 - Deployed version}{45}{subsubsection.24.1.2}\protected@file@percent }
\citation{esp32}
\abx@aux@cite{0}{esp32}
\abx@aux@segm{0}{0}{esp32}
\@writefile{lof}{\contentsline {figure}{\numberline {29}{\ignorespaces Microcontroller topology version 2}}{46}{figure.caption.70}\protected@file@percent }
\@writefile{toc}{\contentsline {subsection}{\numberline {24.2}Esp32}{46}{subsection.24.2}\protected@file@percent }
\@writefile{toc}{\contentsline {subsubsection}{\numberline {24.2.1}Information about the Processor}{46}{subsubsection.24.2.1}\protected@file@percent }
\@writefile{tdo}{\contentsline {todo}{maybe other title}{46}{section*.71}\protected@file@percent }
\pgfsyspdfmark {pgfid138}{5594039}{19695422}
\pgfsyspdfmark {pgfid141}{39363509}{19673141}
\pgfsyspdfmark {pgfid142}{41477044}{19426562}
\@writefile{toc}{\contentsline {subsubsection}{\numberline {24.2.2}Implementation}{46}{subsubsection.24.2.2}\protected@file@percent }
\@writefile{tdo}{\contentsline {todo}{nix english}{46}{section*.72}\protected@file@percent }
\pgfsyspdfmark {pgfid143}{16442259}{8555454}
\pgfsyspdfmark {pgfid146}{39363509}{8533173}
\pgfsyspdfmark {pgfid147}{41477044}{8286594}
\abx@aux@fnpage{40}{46}
\citation{dotnet}
\abx@aux@cite{0}{dotnet}
\abx@aux@segm{0}{0}{dotnet}
\@writefile{toc}{\contentsline {subsubsection}{\numberline {24.2.3}Software}{47}{subsubsection.24.2.3}\protected@file@percent }
\@writefile{tdo}{\contentsline {todo}{Figure: Abb struct of ino file}{47}{subsubsection.24.2.3}\protected@file@percent }
\@writefile{toc}{\contentsline {subsection}{\numberline {24.3}Raspberry Pi}{47}{subsection.24.3}\protected@file@percent }
\newlabel{raspPICap}{{24.3}{47}{Raspberry Pi}{subsection.24.3}{}}
\@writefile{tdo}{\contentsline {todo}{rewrite}{47}{section*.73}\protected@file@percent }
\pgfsyspdfmark {pgfid149}{28727307}{28161603}
\pgfsyspdfmark {pgfid152}{39363509}{28139322}
\pgfsyspdfmark {pgfid153}{41477044}{27892743}
\abx@aux@fnpage{41}{47}
\citation{i2c}
\abx@aux@cite{0}{i2c}
\abx@aux@segm{0}{0}{i2c}
\citation{hbridge}
\abx@aux@cite{0}{hbridge}
\abx@aux@segm{0}{0}{hbridge}
\citation{hbridgeDatasheet}
\abx@aux@cite{0}{hbridgeDatasheet}
\abx@aux@segm{0}{0}{hbridgeDatasheet}
\citation{hbridgeDatasheet}
\abx@aux@cite{0}{hbridgeDatasheet}
\abx@aux@segm{0}{0}{hbridgeDatasheet}
\@writefile{toc}{\contentsline {section}{\numberline {25}PCB}{48}{section.25}\protected@file@percent }
\newlabel{pcb}{{25}{48}{PCB}{section.25}{}}
\@writefile{toc}{\contentsline {subsection}{\numberline {25.1}prototype 1}{48}{subsection.25.1}\protected@file@percent }
\@writefile{lof}{\contentsline {figure}{\numberline {30}{\ignorespaces PCB Design Version 1}}{48}{figure.caption.74}\protected@file@percent }
\@writefile{toc}{\contentsline {subsubsection}{\numberline {25.1.1}Status Screen}{48}{subsubsection.25.1.1}\protected@file@percent }
\@writefile{tdo}{\contentsline {todo}{is the status screen described?}{48}{section*.75}\protected@file@percent }
\pgfsyspdfmark {pgfid154}{15486210}{21400849}
\pgfsyspdfmark {pgfid157}{39363509}{21378568}
\pgfsyspdfmark {pgfid158}{41477044}{21131989}
\@writefile{tdo}{\contentsline {todo}{reference to status screen}{48}{section*.76}\protected@file@percent }
\pgfsyspdfmark {pgfid159}{20124670}{19041553}
\pgfsyspdfmark {pgfid162}{39363509}{17592096}
\pgfsyspdfmark {pgfid163}{41477044}{17345517}
\@writefile{toc}{\contentsline {subsubsection}{\numberline {25.1.2}H-Bridge}{48}{subsubsection.25.1.2}\protected@file@percent }
\newlabel{v1hbridge}{{25.1.2}{48}{H-Bridge}{subsubsection.25.1.2}{}}
\@writefile{toc}{\contentsline {paragraph}{Used H-Bridge Chip - ROHM BD62130}{48}{section*.77}\protected@file@percent }
\abx@aux@fnpage{42}{48}
\abx@aux@fnpage{43}{48}
\@writefile{lot}{\contentsline {table}{\numberline {2}{\ignorespaces Characteristics Table H-Bridge}}{49}{table.caption.78}\protected@file@percent }
\@writefile{lof}{\contentsline {figure}{\numberline {31}{\ignorespaces H-Bridge implementation PCB Version 1}}{49}{figure.caption.79}\protected@file@percent }
\@writefile{toc}{\contentsline {subparagraph}{How the IC was driven}{49}{section*.80}\protected@file@percent }
\@writefile{lot}{\contentsline {table}{\numberline {3}{\ignorespaces Addressing the H-bridge IC}}{49}{table.caption.81}\protected@file@percent }
\abx@aux@fnpage{44}{49}
\@writefile{toc}{\contentsline {paragraph}{Possible errors}{50}{section*.82}\protected@file@percent }
\@writefile{toc}{\contentsline {subparagraph}{Theory 1 - wrong command}{50}{section*.83}\protected@file@percent }
\@writefile{tdo}{\contentsline {todo}{not completely right - see page 10}{50}{section*.84}\protected@file@percent }
\pgfsyspdfmark {pgfid164}{8715976}{22873550}
\pgfsyspdfmark {pgfid167}{39363509}{22878155}
\pgfsyspdfmark {pgfid168}{41477044}{22631576}
\citation{hbridgeDatasheet}
\abx@aux@cite{0}{hbridgeDatasheet}
\abx@aux@segm{0}{0}{hbridgeDatasheet}
\@writefile{toc}{\contentsline {subparagraph}{Theory 2 - no external over current diodes}{51}{section*.85}\protected@file@percent }
\@writefile{lof}{\contentsline {figure}{\numberline {32}{\ignorespaces H bridge internal view}}{51}{figure.caption.86}\protected@file@percent }
\@writefile{toc}{\contentsline {subparagraph}{Theory 3 - over current at motor start}{51}{section*.87}\protected@file@percent }
\@writefile{lof}{\contentsline {figure}{\numberline {33}{\ignorespaces replacement circuit diagram of the motor}}{51}{figure.caption.88}\protected@file@percent }
\abx@aux@fnpage{46}{51}
\citation{nocutafanpinout}
\abx@aux@cite{0}{nocutafanpinout}
\abx@aux@segm{0}{0}{nocutafanpinout}
\@writefile{lof}{\contentsline {figure}{\numberline {34}{\ignorespaces U=R*I filled in with the given values}}{52}{figure.caption.90}\protected@file@percent }
\@writefile{toc}{\contentsline {paragraph}{Conclusion}{52}{section*.91}\protected@file@percent }
\@writefile{toc}{\contentsline {subsubsection}{\numberline {25.1.3}Fans}{52}{subsubsection.25.1.3}\protected@file@percent }
\newlabel{fanspcb}{{25.1.3}{52}{Fans}{subsubsection.25.1.3}{}}
\@writefile{lof}{\contentsline {figure}{\numberline {35}{\ignorespaces Fan Pins PCB version 1}}{52}{figure.caption.92}\protected@file@percent }
\abx@aux@fnpage{47}{52}
\@writefile{lof}{\contentsline {figure}{\numberline {36}{\ignorespaces Nocuta fan configuration}}{53}{figure.caption.93}\protected@file@percent }
\@writefile{toc}{\contentsline {subsubsection}{\numberline {25.1.4}Servo}{53}{subsubsection.25.1.4}\protected@file@percent }
\newlabel{sectionservoPCB}{{25.1.4}{53}{Servo}{subsubsection.25.1.4}{}}
\@writefile{lof}{\contentsline {figure}{\numberline {37}{\ignorespaces Servo implementation PCB Version 1}}{53}{figure.caption.94}\protected@file@percent }
\@writefile{toc}{\contentsline {subsubsection}{\numberline {25.1.5}Buttons}{54}{subsubsection.25.1.5}\protected@file@percent }
\newlabel{buttonspcbv1}{{25.1.5}{54}{Buttons}{subsubsection.25.1.5}{}}
\@writefile{lof}{\contentsline {figure}{\numberline {38}{\ignorespaces Button implementation PCB Version 1}}{54}{figure.caption.95}\protected@file@percent }
\@writefile{toc}{\contentsline {subsubsection}{\numberline {25.1.6}Power}{54}{subsubsection.25.1.6}\protected@file@percent }
\@writefile{toc}{\contentsline {subsubsection}{\numberline {25.1.7}Additional Pins}{54}{subsubsection.25.1.7}\protected@file@percent }
\@writefile{toc}{\contentsline {subsection}{\numberline {25.2}prototype 2}{55}{subsection.25.2}\protected@file@percent }
\newlabel{prototype2}{{25.2}{55}{prototype 2}{subsection.25.2}{}}
\@writefile{toc}{\contentsline {subsubsection}{\numberline {25.2.1}Motor control-board}{55}{subsubsection.25.2.1}\protected@file@percent }
\@writefile{lof}{\contentsline {figure}{\numberline {39}{\ignorespaces MD10C connection pins}}{55}{figure.caption.96}\protected@file@percent }
\@writefile{tdo}{\contentsline {todo}{picture cite}{55}{section*.97}\protected@file@percent }
\pgfsyspdfmark {pgfid169}{5594039}{27239944}
\pgfsyspdfmark {pgfid172}{39363509}{27244549}
\pgfsyspdfmark {pgfid173}{41477044}{26997970}
\@writefile{lof}{\contentsline {figure}{\numberline {40}{\ignorespaces MD10C on PCB version 2}}{55}{figure.caption.98}\protected@file@percent }
\@writefile{toc}{\contentsline {subsubsection}{\numberline {25.2.2}Fans}{55}{subsubsection.25.2.2}\protected@file@percent }
\@writefile{lof}{\contentsline {figure}{\numberline {41}{\ignorespaces Fans on PCB version 2}}{56}{figure.caption.99}\protected@file@percent }
\@writefile{toc}{\contentsline {subsubsection}{\numberline {25.2.3}OLED screen}{56}{subsubsection.25.2.3}\protected@file@percent }
\@writefile{tdo}{\contentsline {todo}{reference to screen}{56}{section*.100}\protected@file@percent }
\pgfsyspdfmark {pgfid174}{14529041}{29455427}
\pgfsyspdfmark {pgfid177}{39363509}{29460032}
\pgfsyspdfmark {pgfid178}{41477044}{29213453}
\@writefile{lof}{\contentsline {figure}{\numberline {42}{\ignorespaces OLED screen pinout}}{56}{figure.caption.101}\protected@file@percent }
\newlabel{screenarea}{{43a}{57}{Screen Pads in PCB version 2}{figure.caption.102}{}}
\newlabel{sub@screenarea}{{a}{57}{Screen Pads in PCB version 2}{figure.caption.102}{}}
\@writefile{lof}{\contentsline {figure}{\numberline {43}{\ignorespaces Screen on PCB version 2}}{57}{figure.caption.102}\protected@file@percent }
\@writefile{toc}{\contentsline {subsubsection}{\numberline {25.2.4}Light section}{57}{subsubsection.25.2.4}\protected@file@percent }
\@writefile{lof}{\contentsline {figure}{\numberline {44}{\ignorespaces Lighting Area on PCB version 2}}{57}{figure.caption.103}\protected@file@percent }
\@writefile{toc}{\contentsline {subsubsection}{\numberline {25.2.5}Buttons}{57}{subsubsection.25.2.5}\protected@file@percent }
\@writefile{toc}{\contentsline {subsubsection}{\numberline {25.2.6}Additional Pins}{57}{subsubsection.25.2.6}\protected@file@percent }
\@writefile{lof}{\contentsline {figure}{\numberline {45}{\ignorespaces Expansion opportunities - PCB v2}}{58}{figure.caption.104}\protected@file@percent }
\@writefile{toc}{\contentsline {section}{\numberline {26}firmware}{59}{section.26}\protected@file@percent }
\@writefile{toc}{\contentsline {subsection}{\numberline {26.1}Firmware for the Esp 32}{59}{subsection.26.1}\protected@file@percent }
\newlabel{firmesp}{{26.1}{59}{Firmware for the \esp }{subsection.26.1}{}}
\@writefile{toc}{\contentsline {subsection}{\numberline {26.2}Firmware for the Raspberry Pi 3B+}{59}{subsection.26.2}\protected@file@percent }
\@writefile{toc}{\contentsline {section}{\numberline {27}Website}{59}{section.27}\protected@file@percent }
\@writefile{toc}{\contentsline {section}{\numberline {28}Windows Client}{59}{section.28}\protected@file@percent }
\@writefile{toc}{\contentsline {section}{\numberline {29}API}{59}{section.29}\protected@file@percent }
\newlabel{apidoc}{{29}{59}{API}{section.29}{}}
\@writefile{toc}{\contentsline {subsection}{\numberline {29.1}Blackmagic Switchers API}{59}{subsection.29.1}\protected@file@percent }
\@writefile{toc}{\contentsline {subsection}{\numberline {29.2}meetinghubAPI}{59}{subsection.29.2}\protected@file@percent }
\@writefile{toc}{\contentsline {section}{\numberline {30}Lighting}{59}{section.30}\protected@file@percent }
\newlabel{lighting}{{30}{59}{Lighting}{section.30}{}}
\@writefile{toc}{\contentsline {part}{V\hspace  {1em}Conclusion}{59}{part.5}\protected@file@percent }
\@writefile{toc}{\contentsline {section}{\numberline {31}TeX Studio}{59}{section.31}\protected@file@percent }
\@writefile{toc}{\contentsline {section}{\numberline {32}HBridge}{59}{section.32}\protected@file@percent }
\@writefile{toc}{\contentsline {section}{\numberline {33}XAMPP}{60}{section.33}\protected@file@percent }
\@writefile{toc}{\contentsline {section}{\numberline {34}ASP NET ERRORS}{60}{section.34}\protected@file@percent }
\@writefile{toc}{\contentsline {part}{VI\hspace  {1em}directories}{60}{part.6}\protected@file@percent }
\abx@aux@page{50}{61}
\abx@aux@page{51}{61}
\abx@aux@page{52}{62}
\abx@aux@page{53}{62}
\abx@aux@page{54}{62}
\abx@aux@page{55}{62}
\abx@aux@page{56}{62}
\abx@aux@page{57}{62}
\abx@aux@page{58}{62}
\abx@aux@page{59}{62}
\abx@aux@page{60}{62}
\abx@aux@page{61}{62}
\abx@aux@page{62}{62}
\abx@aux@page{63}{62}
\abx@aux@page{64}{62}
\abx@aux@page{65}{62}
\abx@aux@page{66}{62}
\abx@aux@page{67}{62}
\abx@aux@page{68}{62}
\abx@aux@page{69}{62}
\abx@aux@page{70}{62}
\abx@aux@page{71}{62}
\abx@aux@page{72}{62}
\abx@aux@page{73}{63}
\abx@aux@page{74}{63}
\abx@aux@page{75}{63}
\abx@aux@page{76}{63}
\abx@aux@page{77}{63}
\abx@aux@page{78}{63}
\abx@aux@page{79}{63}
\abx@aux@page{80}{63}
\abx@aux@page{81}{63}
\abx@aux@page{82}{63}
\abx@aux@page{83}{63}
\abx@aux@page{84}{63}
\abx@aux@page{85}{63}
\abx@aux@page{86}{63}
\abx@aux@page{87}{63}
\abx@aux@page{88}{63}
\abx@aux@page{89}{63}
\abx@aux@page{90}{63}
\abx@aux@page{91}{63}
\abx@aux@page{92}{64}
\abx@aux@page{93}{64}
\abx@aux@page{94}{64}
\abx@aux@read@bbl@mdfivesum{35C8F7DBA6F317E8BF17BE318BC826CC}
\abx@aux@defaultrefcontext{0}{cytron}{nty/global//global/global}
\abx@aux@defaultrefcontext{0}{solidworks}{nty/global//global/global}
\abx@aux@defaultrefcontext{0}{arm}{nty/global//global/global}
\abx@aux@defaultrefcontext{0}{atemmini}{nty/global//global/global}
\abx@aux@defaultrefcontext{0}{azure}{nty/global//global/global}
\abx@aux@defaultrefcontext{0}{milegit}{nty/global//global/global}
\abx@aux@defaultrefcontext{0}{hbridgeDatasheet}{nty/global//global/global}
\abx@aux@defaultrefcontext{0}{hbridge}{nty/global//global/global}
\abx@aux@defaultrefcontext{0}{bibtex}{nty/global//global/global}
\abx@aux@defaultrefcontext{0}{blackmagic}{nty/global//global/global}
\abx@aux@defaultrefcontext{0}{github}{nty/global//global/global}
\abx@aux@defaultrefcontext{0}{pip}{nty/global//global/global}
\abx@aux@defaultrefcontext{0}{rasprecpsu}{nty/global//global/global}
\abx@aux@defaultrefcontext{0}{esp32}{nty/global//global/global}
\abx@aux@defaultrefcontext{0}{git}{nty/global//global/global}
\abx@aux@defaultrefcontext{0}{gitbucket}{nty/global//global/global}
\abx@aux@defaultrefcontext{0}{gitlab}{nty/global//global/global}
\abx@aux@defaultrefcontext{0}{clockify}{nty/global//global/global}
\abx@aux@defaultrefcontext{0}{i2c}{nty/global//global/global}
\abx@aux@defaultrefcontext{0}{latex}{nty/global//global/global}
\abx@aux@defaultrefcontext{0}{rasp3b+}{nty/global//global/global}
\abx@aux@defaultrefcontext{0}{markdown}{nty/global//global/global}
\abx@aux@defaultrefcontext{0}{cytronDS}{nty/global//global/global}
\abx@aux@defaultrefcontext{0}{5vpsuDS}{nty/global//global/global}
\abx@aux@defaultrefcontext{0}{5vpsu}{nty/global//global/global}
\abx@aux@defaultrefcontext{0}{vscodeicon}{nty/global//global/global}
\abx@aux@defaultrefcontext{0}{miktex}{nty/global//global/global}
\abx@aux@defaultrefcontext{0}{dotnet}{nty/global//global/global}
\abx@aux@defaultrefcontext{0}{noctua80mm}{nty/global//global/global}
\abx@aux@defaultrefcontext{0}{noctua80mmspec}{nty/global//global/global}
\abx@aux@defaultrefcontext{0}{np_bx1Dummy}{nty/global//global/global}
\abx@aux@defaultrefcontext{0}{apt}{nty/global//global/global}
\abx@aux@defaultrefcontext{0}{altium}{nty/global//global/global}
\abx@aux@defaultrefcontext{0}{googledrive}{nty/global//global/global}
\abx@aux@defaultrefcontext{0}{onedrive}{nty/global//global/global}
\abx@aux@defaultrefcontext{0}{termiusicon}{nty/global//global/global}
\abx@aux@defaultrefcontext{0}{sailer2009comparative}{nty/global//global/global}
\abx@aux@defaultrefcontext{0}{rbdtech}{nty/global//global/global}
\abx@aux@defaultrefcontext{0}{dockpsu}{nty/global//global/global}
\abx@aux@defaultrefcontext{0}{termius}{nty/global//global/global}
\abx@aux@defaultrefcontext{0}{texstudio}{nty/global//global/global}
\abx@aux@defaultrefcontext{0}{vscode}{nty/global//global/global}
\abx@aux@defaultrefcontext{0}{vs}{nty/global//global/global}
\abx@aux@defaultrefcontext{0}{nocutafanpinout}{nty/global//global/global}
\abx@aux@defaultrefcontext{0}{zotero}{nty/global//global/global}
\abx@aux@defaultlabelprefix{0}{cytron}{}
\abx@aux@defaultlabelprefix{0}{solidworks}{}
\abx@aux@defaultlabelprefix{0}{arm}{}
\abx@aux@defaultlabelprefix{0}{atemmini}{}
\abx@aux@defaultlabelprefix{0}{azure}{}
\abx@aux@defaultlabelprefix{0}{milegit}{}
\abx@aux@defaultlabelprefix{0}{hbridgeDatasheet}{}
\abx@aux@defaultlabelprefix{0}{hbridge}{}
\abx@aux@defaultlabelprefix{0}{bibtex}{}
\abx@aux@defaultlabelprefix{0}{blackmagic}{}
\abx@aux@defaultlabelprefix{0}{github}{}
\abx@aux@defaultlabelprefix{0}{pip}{}
\abx@aux@defaultlabelprefix{0}{rasprecpsu}{}
\abx@aux@defaultlabelprefix{0}{esp32}{}
\abx@aux@defaultlabelprefix{0}{git}{}
\abx@aux@defaultlabelprefix{0}{gitbucket}{}
\abx@aux@defaultlabelprefix{0}{gitlab}{}
\abx@aux@defaultlabelprefix{0}{clockify}{}
\abx@aux@defaultlabelprefix{0}{i2c}{}
\abx@aux@defaultlabelprefix{0}{latex}{}
\abx@aux@defaultlabelprefix{0}{rasp3b+}{}
\abx@aux@defaultlabelprefix{0}{markdown}{}
\abx@aux@defaultlabelprefix{0}{cytronDS}{}
\abx@aux@defaultlabelprefix{0}{5vpsuDS}{}
\abx@aux@defaultlabelprefix{0}{5vpsu}{}
\abx@aux@defaultlabelprefix{0}{vscodeicon}{}
\abx@aux@defaultlabelprefix{0}{miktex}{}
\abx@aux@defaultlabelprefix{0}{dotnet}{}
\abx@aux@defaultlabelprefix{0}{noctua80mm}{}
\abx@aux@defaultlabelprefix{0}{noctua80mmspec}{}
\abx@aux@defaultlabelprefix{0}{np_bx1Dummy}{}
\abx@aux@defaultlabelprefix{0}{apt}{}
\abx@aux@defaultlabelprefix{0}{altium}{}
\abx@aux@defaultlabelprefix{0}{googledrive}{}
\abx@aux@defaultlabelprefix{0}{onedrive}{}
\abx@aux@defaultlabelprefix{0}{termiusicon}{}
\abx@aux@defaultlabelprefix{0}{sailer2009comparative}{}
\abx@aux@defaultlabelprefix{0}{rbdtech}{}
\abx@aux@defaultlabelprefix{0}{dockpsu}{}
\abx@aux@defaultlabelprefix{0}{termius}{}
\abx@aux@defaultlabelprefix{0}{texstudio}{}
\abx@aux@defaultlabelprefix{0}{vscode}{}
\abx@aux@defaultlabelprefix{0}{vs}{}
\abx@aux@defaultlabelprefix{0}{nocutafanpinout}{}
\abx@aux@defaultlabelprefix{0}{zotero}{}
\gdef \@abspage@last{64}
