\relax 
\providecommand\babel@aux[2]{}
\@nameuse{bbl@beforestart}
\catcode `"\active 
\abx@aux@refcontext{nty/global//global/global}
\providecommand\hyper@newdestlabel[2]{}
\providecommand\HyperFirstAtBeginDocument{\AtBeginDocument}
\HyperFirstAtBeginDocument{\ifx\hyper@anchor\@undefined
\global\let\oldnewlabel\newlabel
\gdef\newlabel#1#2{\newlabelxx{#1}#2}
\gdef\newlabelxx#1#2#3#4#5#6{\oldnewlabel{#1}{{#2}{#3}}}
\AtEndDocument{\ifx\hyper@anchor\@undefined
\let\newlabel\oldnewlabel
\fi}
\fi}
\global\let\hyper@last\relax 
\gdef\HyperFirstAtBeginDocument#1{#1}
\providecommand\HyField@AuxAddToFields[1]{}
\providecommand\HyField@AuxAddToCoFields[2]{}
\providecommand \oddpage@label [2]{}
\babel@aux{ngerman}{}
\@writefile{toc}{\contentsline {part}{I\hspace  {1em}used materials}{IV}{part.1}\protected@file@percent }
\@writefile{toc}{\contentsline {part}{II\hspace  {1em}Requirements}{IV}{part.2}\protected@file@percent }
\@writefile{toc}{\contentsline {section}{\numberline {1}Product Requirements Document}{IV}{section.1}\protected@file@percent }
\@writefile{toc}{\contentsline {subsection}{\numberline {1.1}Introduction}{IV}{subsection.1.1}\protected@file@percent }
\@writefile{toc}{\contentsline {subsection}{\numberline {1.2}Initial situation}{IV}{subsection.1.2}\protected@file@percent }
\@writefile{toc}{\contentsline {subsection}{\numberline {1.3}Target situation}{V}{subsection.1.3}\protected@file@percent }
\@writefile{toc}{\contentsline {subsection}{\numberline {1.4}Use cases}{V}{subsection.1.4}\protected@file@percent }
\@writefile{toc}{\contentsline {subsection}{\numberline {1.5}Interfaces}{V}{subsection.1.5}\protected@file@percent }
\@writefile{toc}{\contentsline {subsection}{\numberline {1.6}System requirements}{V}{subsection.1.6}\protected@file@percent }
\@writefile{toc}{\contentsline {subsection}{\numberline {1.7}Quality requirements}{V}{subsection.1.7}\protected@file@percent }
\@writefile{toc}{\contentsline {subsection}{\numberline {1.8}Risks}{VI}{subsection.1.8}\protected@file@percent }
\@writefile{toc}{\contentsline {part}{III\hspace  {1em}Developing Concept}{VI}{part.3}\protected@file@percent }
\@writefile{toc}{\contentsline {section}{\numberline {2}functional overview}{VI}{section.2}\protected@file@percent }
\@writefile{toc}{\contentsline {subsection}{\numberline {2.1}control interface}{VI}{subsection.2.1}\protected@file@percent }
\@writefile{toc}{\contentsline {subsection}{\numberline {2.2}height of the table}{VI}{subsection.2.2}\protected@file@percent }
\@writefile{toc}{\contentsline {subsection}{\numberline {2.3}camera control}{VI}{subsection.2.3}\protected@file@percent }
\@writefile{toc}{\contentsline {subsubsection}{\numberline {2.3.1}microphone control}{VI}{subsubsection.2.3.1}\protected@file@percent }
\@writefile{toc}{\contentsline {subsection}{\numberline {2.4}lighting situation}{VI}{subsection.2.4}\protected@file@percent }
\@writefile{toc}{\contentsline {section}{\numberline {3}Operations concept}{VI}{section.3}\protected@file@percent }
\@writefile{toc}{\contentsline {section}{\numberline {4}Software concept}{VII}{section.4}\protected@file@percent }
\@writefile{toc}{\contentsline {subsection}{\numberline {4.1}Firmware concept}{VII}{subsection.4.1}\protected@file@percent }
\@writefile{toc}{\contentsline {subsection}{\numberline {4.2}website concept}{VII}{subsection.4.2}\protected@file@percent }
\@writefile{toc}{\contentsline {part}{IV\hspace  {1em}Technical Documentation}{VII}{part.4}\protected@file@percent }
\@writefile{toc}{\contentsline {section}{\numberline {5}website}{VII}{section.5}\protected@file@percent }
\@writefile{toc}{\contentsline {section}{\numberline {6}API Documentation}{VII}{section.6}\protected@file@percent }
\@writefile{toc}{\contentsline {subsection}{\numberline {6.1}Blackmagic Switchers API}{VII}{subsection.6.1}\protected@file@percent }
\@writefile{toc}{\contentsline {subsection}{\numberline {6.2}meetinghubAPI}{VII}{subsection.6.2}\protected@file@percent }
\@writefile{toc}{\contentsline {section}{\numberline {7}Controller}{VII}{section.7}\protected@file@percent }
\@writefile{toc}{\contentsline {section}{\numberline {8}Lighting}{VII}{section.8}\protected@file@percent }
\abx@aux@read@bbl@mdfivesum{071A75FAD3BD20730579CD3CFCCFE25A}
\gdef \@abspage@last{9}
