\relax 
\providecommand\hyper@newdestlabel[2]{}
\providecommand\HyField@AuxAddToFields[1]{}
\providecommand\HyField@AuxAddToCoFields[2]{}
\bibstyle{biblatex}
\bibdata{MainDocument-blx,meetinghubBIB}
\citation{biblatex-control}
\abx@aux@refcontext{nty/global//global/global}
\providecommand \oddpage@label [2]{}
\pgfsyspdfmark {pgfid1}{4736286}{50644704}
\@writefile{toc}{\contentsline {section}{\numberline {1}Abbreviations}{1}{section.1}\protected@file@percent }
\@writefile{toc}{\contentsline {section}{\numberline {2}Affidavit}{2}{section.2}\protected@file@percent }
\@writefile{toc}{\contentsline {section}{\numberline {3}Thanks to}{3}{section.3}\protected@file@percent }
\citation{fiveis}
\abx@aux@cite{0}{fiveis}
\abx@aux@segm{0}{0}{fiveis}
\@writefile{toc}{\contentsline {section}{\numberline {4}Document information}{4}{section.4}\protected@file@percent }
\@writefile{lof}{\contentsline {figure}{\numberline {1}{\ignorespaces QR Code repository}}{4}{figure.caption.1}\protected@file@percent }
\abx@aux@fnpage{1}{4}
\@writefile{toc}{\contentsline {part}{I\hspace  {1em}Prelude}{5}{part.1}\protected@file@percent }
\@writefile{toc}{\contentsline {section}{\numberline {5}Abstract - English}{5}{section.5}\protected@file@percent }
\@writefile{toc}{\contentsline {subsection}{\numberline {5.1}Initial solution}{5}{subsection.5.1}\protected@file@percent }
\@writefile{toc}{\contentsline {subsection}{\numberline {5.2}Aim of the project}{5}{subsection.5.2}\protected@file@percent }
\@writefile{toc}{\contentsline {section}{\numberline {6}Abstract - German}{6}{section.6}\protected@file@percent }
\@writefile{toc}{\contentsline {subsection}{\numberline {6.1}Ausgangssituation}{6}{subsection.6.1}\protected@file@percent }
\@writefile{toc}{\contentsline {subsection}{\numberline {6.2}Ziel des Projekts}{6}{subsection.6.2}\protected@file@percent }
\@writefile{toc}{\contentsline {section}{\numberline {7}Product Requirements Document}{7}{section.7}\protected@file@percent }
\@writefile{toc}{\contentsline {subsection}{\numberline {7.1}Introduction}{7}{subsection.7.1}\protected@file@percent }
\@writefile{toc}{\contentsline {subsection}{\numberline {7.2}Initial situation}{7}{subsection.7.2}\protected@file@percent }
\@writefile{toc}{\contentsline {subsection}{\numberline {7.3}Target situation}{7}{subsection.7.3}\protected@file@percent }
\@writefile{toc}{\contentsline {subsection}{\numberline {7.4}Use cases}{7}{subsection.7.4}\protected@file@percent }
\@writefile{toc}{\contentsline {subsection}{\numberline {7.5}Interfaces}{8}{subsection.7.5}\protected@file@percent }
\@writefile{toc}{\contentsline {subsection}{\numberline {7.6}System requirements}{8}{subsection.7.6}\protected@file@percent }
\@writefile{toc}{\contentsline {subsection}{\numberline {7.7}Quality requirements}{8}{subsection.7.7}\protected@file@percent }
\@writefile{toc}{\contentsline {subsection}{\numberline {7.8}Risks}{8}{subsection.7.8}\protected@file@percent }
\citation{fiveIsLogo}
\abx@aux@cite{0}{fiveIsLogo}
\abx@aux@segm{0}{0}{fiveIsLogo}
\@writefile{toc}{\contentsline {section}{\numberline {8}Project Team}{9}{section.8}\protected@file@percent }
\@writefile{toc}{\contentsline {subsection}{\numberline {8.1}Project members}{9}{subsection.8.1}\protected@file@percent }
\@writefile{toc}{\contentsline {subsection}{\numberline {8.2}Supervising teacher}{9}{subsection.8.2}\protected@file@percent }
\@writefile{toc}{\contentsline {subsection}{\numberline {8.3}Contact person}{9}{subsection.8.3}\protected@file@percent }
\@writefile{lof}{\contentsline {figure}{\numberline {2}{\ignorespaces Five Is Logo \FN@sf@gobble@optonly  }}{9}{figure.caption.2}\protected@file@percent }
\abx@aux@fnpage{2}{9}
\citation{atemmini}
\abx@aux@cite{0}{atemmini}
\abx@aux@segm{0}{0}{atemmini}
\@writefile{toc}{\contentsline {section}{\numberline {9}Project planning}{10}{section.9}\protected@file@percent }
\newlabel{milestones}{{9}{10}{Project planning}{section.9}{}}
\@writefile{lof}{\contentsline {figure}{\numberline {3}{\ignorespaces Milestones}}{10}{figure.caption.3}\protected@file@percent }
\@writefile{toc}{\contentsline {subsection}{\numberline {9.1}Milestone 1 - API}{10}{subsection.9.1}\protected@file@percent }
\citation{chineseNY}
\abx@aux@cite{0}{chineseNY}
\abx@aux@segm{0}{0}{chineseNY}
\@writefile{toc}{\contentsline {subsection}{\numberline {9.2}Milestone 2 - Website}{11}{subsection.9.2}\protected@file@percent }
\@writefile{toc}{\contentsline {subsection}{\numberline {9.3}Milestone 3 - Monitor Stand}{11}{subsection.9.3}\protected@file@percent }
\@writefile{toc}{\contentsline {subsection}{\numberline {9.4}Milestone 4 - Controller boards}{11}{subsection.9.4}\protected@file@percent }
\@writefile{toc}{\contentsline {subsection}{\numberline {9.5}Milestone 5 - Table Top}{11}{subsection.9.5}\protected@file@percent }
\@writefile{toc}{\contentsline {subsection}{\numberline {9.6}Milestone 6 - Lights}{11}{subsection.9.6}\protected@file@percent }
\@writefile{toc}{\contentsline {subsection}{\numberline {9.7}Milestone 6.1 - Light bar}{11}{subsection.9.7}\protected@file@percent }
\@writefile{toc}{\contentsline {subsection}{\numberline {9.8}Milestone 7 - Client}{11}{subsection.9.8}\protected@file@percent }
\abx@aux@fnpage{4}{11}
\@writefile{toc}{\contentsline {section}{\numberline {10}Timeline}{12}{section.10}\protected@file@percent }
\@writefile{toc}{\contentsline {section}{\numberline {11}Time spent}{13}{section.11}\protected@file@percent }
\newlabel{timespent}{{11}{13}{Time spent}{section.11}{}}
\@writefile{lof}{\contentsline {figure}{\numberline {4}{\ignorespaces Time split into tasks}}{13}{figure.caption.4}\protected@file@percent }
\@writefile{toc}{\contentsline {section}{\numberline {12}Goals}{14}{section.12}\protected@file@percent }
\@writefile{toc}{\contentsline {subsection}{\numberline {12.1}Must have}{14}{subsection.12.1}\protected@file@percent }
\@writefile{toc}{\contentsline {subsection}{\numberline {12.2}Nice to have}{14}{subsection.12.2}\protected@file@percent }
\@writefile{toc}{\contentsline {subsection}{\numberline {12.3}Not have}{14}{subsection.12.3}\protected@file@percent }
\citation{onedrive}
\abx@aux@cite{0}{onedrive}
\abx@aux@segm{0}{0}{onedrive}
\citation{googledrive}
\abx@aux@cite{0}{googledrive}
\abx@aux@segm{0}{0}{googledrive}
\citation{gitlab}
\abx@aux@cite{0}{gitlab}
\abx@aux@segm{0}{0}{gitlab}
\citation{git}
\abx@aux@cite{0}{git}
\abx@aux@segm{0}{0}{git}
\citation{github}
\abx@aux@cite{0}{github}
\abx@aux@segm{0}{0}{github}
\citation{gitbucket}
\abx@aux@cite{0}{gitbucket}
\abx@aux@segm{0}{0}{gitbucket}
\citation{azure}
\abx@aux@cite{0}{azure}
\abx@aux@segm{0}{0}{azure}
\@writefile{toc}{\contentsline {part}{II\hspace  {1em}Requirements}{15}{part.2}\protected@file@percent }
\@writefile{toc}{\contentsline {section}{\numberline {13}Used software}{15}{section.13}\protected@file@percent }
\@writefile{toc}{\contentsline {subsection}{\numberline {13.1}General Software}{15}{subsection.13.1}\protected@file@percent }
\@writefile{lot}{\contentsline {table}{\numberline {1}{\ignorespaces Software Versions}}{15}{table.caption.5}\protected@file@percent }
\@writefile{toc}{\contentsline {subsubsection}{\numberline {13.1.1}GitLab}{15}{subsubsection.13.1.1}\protected@file@percent }
\abx@aux@fnpage{5}{15}
\abx@aux@fnpage{6}{15}
\abx@aux@fnpage{7}{15}
\abx@aux@fnpage{8}{15}
\@writefile{toc}{\contentsline {paragraph}{Why GitLab}{16}{subsubsection.13.1.1}\protected@file@percent }
\@writefile{lof}{\contentsline {figure}{\numberline {5}{\ignorespaces Excerpt of the projects repository graph}}{16}{figure.caption.6}\protected@file@percent }
\providecommand*\caption@xref[2]{\@setref\relax\@undefined{#1}}
\newlabel{gitbranchview}{{5}{16}{Excerpt of the projects repository graph}{figure.caption.6}{}}
\abx@aux@fnpage{9}{16}
\abx@aux@fnpage{10}{16}
\abx@aux@fnpage{11}{16}
\citation{texstudio}
\abx@aux@cite{0}{texstudio}
\abx@aux@segm{0}{0}{texstudio}
\citation{latex}
\abx@aux@cite{0}{latex}
\abx@aux@segm{0}{0}{latex}
\citation{markdown}
\abx@aux@cite{0}{markdown}
\abx@aux@segm{0}{0}{markdown}
\citation{miktex}
\abx@aux@cite{0}{miktex}
\abx@aux@segm{0}{0}{miktex}
\citation{apt}
\abx@aux@cite{0}{apt}
\abx@aux@segm{0}{0}{apt}
\citation{pip}
\abx@aux@cite{0}{pip}
\abx@aux@segm{0}{0}{pip}
\citation{zotero}
\abx@aux@cite{0}{zotero}
\abx@aux@segm{0}{0}{zotero}
\citation{bibtex}
\abx@aux@cite{0}{bibtex}
\abx@aux@segm{0}{0}{bibtex}
\@writefile{toc}{\contentsline {subsubsection}{\numberline {13.1.2}TeXStudio}{17}{subsubsection.13.1.2}\protected@file@percent }
\@writefile{toc}{\contentsline {paragraph}{todonotes package}{17}{subsubsection.13.1.2}\protected@file@percent }
\@writefile{lof}{\contentsline {figure}{\numberline {6}{\ignorespaces Used Fans}}{17}{figure.caption.7}\protected@file@percent }
\@writefile{toc}{\contentsline {paragraph}{Zotero\blx@tocontentsinit {0}\autocite {zotero}}{17}{figure.caption.7}\protected@file@percent }
\abx@aux@fnpage{12}{17}
\abx@aux@fnpage{13}{17}
\abx@aux@fnpage{14}{17}
\abx@aux@fnpage{15}{17}
\abx@aux@fnpage{16}{17}
\abx@aux@fnpage{17}{17}
\abx@aux@fnpage{18}{17}
\abx@aux@fnpage{19}{17}
\citation{solidworks}
\abx@aux@cite{0}{solidworks}
\abx@aux@segm{0}{0}{solidworks}
\citation{altium}
\abx@aux@cite{0}{altium}
\abx@aux@segm{0}{0}{altium}
\citation{eagle}
\abx@aux@cite{0}{eagle}
\abx@aux@segm{0}{0}{eagle}
\citation{KiCad}
\abx@aux@cite{0}{KiCad}
\abx@aux@segm{0}{0}{KiCad}
\citation{eagle}
\abx@aux@cite{0}{eagle}
\abx@aux@segm{0}{0}{eagle}
\@writefile{toc}{\contentsline {paragraph}{tcolorbox}{18}{figure.caption.7}\protected@file@percent }
\@writefile{toc}{\contentsline {subsection}{\numberline {13.2}Construction software}{18}{subsection.13.2}\protected@file@percent }
\@writefile{toc}{\contentsline {subsubsection}{\numberline {13.2.1}Solidworks}{18}{subsubsection.13.2.1}\protected@file@percent }
\@writefile{toc}{\contentsline {subsubsection}{\numberline {13.2.2}Altium}{18}{subsubsection.13.2.2}\protected@file@percent }
\@writefile{lof}{\contentsline {figure}{\numberline {7}{\ignorespaces Altium Logo}}{18}{figure.caption.8}\protected@file@percent }
\abx@aux@fnpage{20}{18}
\abx@aux@fnpage{21}{18}
\abx@aux@fnpage{22}{18}
\abx@aux@fnpage{23}{18}
\abx@aux@fnpage{24}{18}
\citation{vscodeicon}
\abx@aux@cite{0}{vscodeicon}
\abx@aux@segm{0}{0}{vscodeicon}
\citation{vscode}
\abx@aux@cite{0}{vscode}
\abx@aux@segm{0}{0}{vscode}
\citation{vs}
\abx@aux@cite{0}{vs}
\abx@aux@segm{0}{0}{vs}
\citation{termiusicon}
\abx@aux@cite{0}{termiusicon}
\abx@aux@segm{0}{0}{termiusicon}
\citation{termius}
\abx@aux@cite{0}{termius}
\abx@aux@segm{0}{0}{termius}
\citation{milegit}
\abx@aux@cite{0}{milegit}
\abx@aux@segm{0}{0}{milegit}
\@writefile{toc}{\contentsline {subsection}{\numberline {13.3}Coding Software}{19}{subsection.13.3}\protected@file@percent }
\@writefile{toc}{\contentsline {subsubsection}{\numberline {13.3.1}Visual Studio Code}{19}{subsubsection.13.3.1}\protected@file@percent }
\@writefile{lof}{\contentsline {figure}{\numberline {8}{\ignorespaces VSCode Logo\blx@tocontentsinit {0}\autocite {vscodeicon}}}{19}{figure.caption.9}\protected@file@percent }
\@writefile{toc}{\contentsline {paragraph}{Remote Debugging Extension}{19}{figure.caption.9}\protected@file@percent }
\@writefile{toc}{\contentsline {subsubsection}{\numberline {13.3.2}Visual Studio}{19}{subsubsection.13.3.2}\protected@file@percent }
\@writefile{toc}{\contentsline {subsubsection}{\numberline {13.3.3}Termius}{19}{subsubsection.13.3.3}\protected@file@percent }
\@writefile{lof}{\contentsline {figure}{\numberline {9}{\ignorespaces Termius Logo\blx@tocontentsinit {0}\autocite {termiusicon}}}{19}{figure.caption.10}\protected@file@percent }
\abx@aux@fnpage{26}{19}
\abx@aux@fnpage{27}{19}
\abx@aux@fnpage{29}{19}
\citation{clockify}
\abx@aux@cite{0}{clockify}
\abx@aux@segm{0}{0}{clockify}
\@writefile{toc}{\contentsline {subsection}{\numberline {13.4}Time tracking}{20}{subsection.13.4}\protected@file@percent }
\@writefile{toc}{\contentsline {subsubsection}{\numberline {13.4.1}Gitlab}{20}{subsubsection.13.4.1}\protected@file@percent }
\@writefile{lof}{\contentsline {figure}{\numberline {10}{\ignorespaces Selected GitLab milestones}}{20}{figure.caption.11}\protected@file@percent }
\@writefile{toc}{\contentsline {subsubsection}{\numberline {13.4.2}Clockify}{20}{subsubsection.13.4.2}\protected@file@percent }
\newlabel{clockify}{{13.4.2}{20}{Clockify}{subsubsection.13.4.2}{}}
\abx@aux@fnpage{30}{20}
\abx@aux@fnpage{31}{20}
\citation{hbridgebasics}
\abx@aux@cite{0}{hbridgebasics}
\abx@aux@segm{0}{0}{hbridgebasics}
\@writefile{toc}{\contentsline {section}{\numberline {14}Required basics}{21}{section.14}\protected@file@percent }
\@writefile{toc}{\contentsline {subsection}{\numberline {14.1}H-Bridge}{21}{subsection.14.1}\protected@file@percent }
\@writefile{lof}{\contentsline {figure}{\numberline {11}{\ignorespaces Basic internal circuit of a full bridge \blx@tocontentsinit {0}\autocite {hbridgebasics}}}{21}{figure.caption.12}\protected@file@percent }
\citation{i2cconstraints}
\abx@aux@cite{0}{i2cconstraints}
\abx@aux@segm{0}{0}{i2cconstraints}
\citation{i2cquickstart}
\abx@aux@cite{0}{i2cquickstart}
\abx@aux@segm{0}{0}{i2cquickstart}
\citation{i2cquickstart}
\abx@aux@cite{0}{i2cquickstart}
\abx@aux@segm{0}{0}{i2cquickstart}
\citation{whatsanapi}
\abx@aux@cite{0}{whatsanapi}
\abx@aux@segm{0}{0}{whatsanapi}
\citation{googlepayapi}
\abx@aux@cite{0}{googlepayapi}
\abx@aux@segm{0}{0}{googlepayapi}
\@writefile{toc}{\contentsline {subsection}{\numberline {14.2}I2C}{22}{subsection.14.2}\protected@file@percent }
\@writefile{lof}{\contentsline {figure}{\numberline {12}{\ignorespaces I2C Speeds \blx@tocontentsinit {0}\autocite {i2cquickstart}}}{22}{figure.caption.13}\protected@file@percent }
\@writefile{lof}{\contentsline {figure}{\numberline {13}{\ignorespaces Basic I2C topology \blx@tocontentsinit {0}\autocite {i2cquickstart}}}{22}{figure.caption.14}\protected@file@percent }
\@writefile{toc}{\contentsline {subsection}{\numberline {14.3}API}{22}{subsection.14.3}\protected@file@percent }
\newlabel{apiexplain}{{14.3}{22}{API}{subsection.14.3}{}}
\abx@aux@fnpage{33}{22}
\abx@aux@fnpage{36}{22}
\abx@aux@fnpage{37}{22}
\citation{atemmini}
\abx@aux@cite{0}{atemmini}
\abx@aux@segm{0}{0}{atemmini}
\@writefile{toc}{\contentsline {part}{III\hspace  {1em}Developing Concept}{23}{part.3}\protected@file@percent }
\@writefile{toc}{\contentsline {section}{\numberline {15}Functional overview}{23}{section.15}\protected@file@percent }
\@writefile{toc}{\contentsline {subsection}{\numberline {15.1}Controlling the height of the desk}{23}{subsection.15.1}\protected@file@percent }
\@writefile{toc}{\contentsline {subsection}{\numberline {15.2}Controlling the camera}{23}{subsection.15.2}\protected@file@percent }
\abx@aux@fnpage{38}{23}
\citation{elgatolight}
\abx@aux@cite{0}{elgatolight}
\abx@aux@segm{0}{0}{elgatolight}
\@writefile{toc}{\contentsline {subsection}{\numberline {15.3}Lighting conditions}{24}{subsection.15.3}\protected@file@percent }
\@writefile{toc}{\contentsline {subsection}{\numberline {15.4}Monitor Stand}{24}{subsection.15.4}\protected@file@percent }
\@writefile{toc}{\contentsline {subsection}{\numberline {15.5}Connect to the desk easily}{24}{subsection.15.5}\protected@file@percent }
\abx@aux@fnpage{39}{24}
\@writefile{toc}{\contentsline {section}{\numberline {16}Operations concept}{25}{section.16}\protected@file@percent }
\@writefile{toc}{\contentsline {subsection}{\numberline {16.1}Hotkeys}{25}{subsection.16.1}\protected@file@percent }
\@writefile{lof}{\contentsline {figure}{\numberline {14}{\ignorespaces Hotkey buttons embedded into the right glass}}{25}{figure.caption.15}\protected@file@percent }
\citation{atAglanceG}
\abx@aux@cite{0}{atAglanceG}
\abx@aux@segm{0}{0}{atAglanceG}
\@writefile{toc}{\contentsline {section}{\numberline {17}Software concept}{26}{section.17}\protected@file@percent }
\@writefile{toc}{\contentsline {subsection}{\numberline {17.1}Development controller}{26}{subsection.17.1}\protected@file@percent }
\@writefile{toc}{\contentsline {subsection}{\numberline {17.2}Deployed controller}{26}{subsection.17.2}\protected@file@percent }
\@writefile{toc}{\contentsline {subsection}{\numberline {17.3}Tablet-Website}{26}{subsection.17.3}\protected@file@percent }
\@writefile{lof}{\contentsline {figure}{\numberline {15}{\ignorespaces Android's "At a glance" widget\blx@tocontentsinit {0}\autocite {atAglanceG}}}{26}{figure.caption.16}\protected@file@percent }
\@writefile{toc}{\contentsline {subsection}{\numberline {17.4}Windows Client}{27}{subsection.17.4}\protected@file@percent }
\@writefile{toc}{\contentsline {part}{IV\hspace  {1em}Technical Documentation}{28}{part.4}\protected@file@percent }
\@writefile{toc}{\contentsline {section}{\numberline {18}Technical overview}{28}{section.18}\protected@file@percent }
\@writefile{lof}{\contentsline {figure}{\numberline {16}{\ignorespaces General view of the desk}}{28}{figure.caption.17}\protected@file@percent }
\@writefile{lof}{\contentsline {figure}{\numberline {17}{\ignorespaces X-Ray view of the desk base from the bottom to the top}}{29}{figure.caption.18}\protected@file@percent }
\@writefile{lof}{\contentsline {figure}{\numberline {18}{\ignorespaces Monitor Stand}}{29}{figure.caption.19}\protected@file@percent }
\citation{noctua80mm}
\abx@aux@cite{0}{noctua80mm}
\abx@aux@segm{0}{0}{noctua80mm}
\citation{noctua40mm}
\abx@aux@cite{0}{noctua40mm}
\abx@aux@segm{0}{0}{noctua40mm}
\citation{noctua80mm}
\abx@aux@cite{0}{noctua80mm}
\abx@aux@segm{0}{0}{noctua80mm}
\@writefile{toc}{\contentsline {subsection}{\numberline {18.1}Right Compartment}{30}{subsection.18.1}\protected@file@percent }
\@writefile{toc}{\contentsline {subsubsection}{\numberline {18.1.1}Fans}{30}{subsubsection.18.1.1}\protected@file@percent }
\@writefile{lof}{\contentsline {figure}{\numberline {19}{\ignorespaces Right compartment Airflow}}{30}{figure.caption.20}\protected@file@percent }
\newlabel{fansRightCOMP}{{19}{30}{Right compartment Airflow}{figure.caption.20}{}}
\@writefile{toc}{\contentsline {paragraph}{80mm Fans}{30}{figure.caption.20}\protected@file@percent }
\@writefile{toc}{\contentsline {paragraph}{40mm Fans}{30}{figure.caption.20}\protected@file@percent }
\abx@aux@fnpage{41}{30}
\newlabel{40mmfanPIC}{{20a}{31}{Noctua 40mm Fan \autocite {noctua40mm}}{figure.caption.21}{}}
\newlabel{sub@40mmfanPIC}{{a}{31}{Noctua 40mm Fan \autocite {noctua40mm}}{figure.caption.21}{}}
\@writefile{lof}{\contentsline {figure}{\numberline {20}{\ignorespaces Used Fans}}{31}{figure.caption.21}\protected@file@percent }
\@writefile{toc}{\contentsline {paragraph}{Air in the Right compartment}{31}{figure.caption.21}\protected@file@percent }
\@writefile{toc}{\contentsline {paragraph}{Air in the Left compartment}{31}{figure.caption.21}\protected@file@percent }
\@writefile{toc}{\contentsline {subparagraph}{How effective is the cooling?}{32}{figure.caption.21}\protected@file@percent }
\@writefile{lof}{\contentsline {figure}{\numberline {21}{\ignorespaces Temperature measurement 1, fans off for 10min}}{32}{figure.caption.22}\protected@file@percent }
\@writefile{lof}{\contentsline {figure}{\numberline {22}{\ignorespaces Temperature measurement 2, fans on, after 10min}}{32}{figure.caption.23}\protected@file@percent }
\citation{atempic}
\abx@aux@cite{0}{atempic}
\abx@aux@segm{0}{0}{atempic}
\citation{atemmini}
\abx@aux@cite{0}{atemmini}
\abx@aux@segm{0}{0}{atemmini}
\citation{blackmagic}
\abx@aux@cite{0}{blackmagic}
\abx@aux@segm{0}{0}{blackmagic}
\@writefile{toc}{\contentsline {subsubsection}{\numberline {18.1.2}Blackmagic Design ATEM Mini Pro}{33}{subsubsection.18.1.2}\protected@file@percent }
\newlabel{atemsection}{{18.1.2}{33}{Blackmagic Design\space \atem }{subsubsection.18.1.2}{}}
\@writefile{lof}{\contentsline {figure}{\numberline {23}{\ignorespaces ATEM Mini Pro\blx@tocontentsinit {0}\autocite {atempic}}}{33}{figure.caption.24}\protected@file@percent }
\newlabel{atempicture}{{23}{33}{\atem \autocite {atempic}}{figure.caption.24}{}}
\@writefile{toc}{\contentsline {paragraph}{ATEM Software Control}{33}{figure.caption.24}\protected@file@percent }
\@writefile{toc}{\contentsline {paragraph}{Needed disassembly}{33}{figure.caption.24}\protected@file@percent }
\abx@aux@fnpage{45}{33}
\abx@aux@fnpage{46}{33}
\citation{rasp3b+}
\abx@aux@cite{0}{rasp3b+}
\abx@aux@segm{0}{0}{rasp3b+}
\@writefile{lof}{\contentsline {figure}{\numberline {24}{\ignorespaces ATEM Mini Pro disassembled}}{34}{figure.caption.25}\protected@file@percent }
\@writefile{lof}{\contentsline {figure}{\numberline {25}{\ignorespaces ATEM Mini Pro mainboard}}{34}{figure.caption.26}\protected@file@percent }
\citation{arm}
\abx@aux@cite{0}{arm}
\abx@aux@segm{0}{0}{arm}
\@writefile{toc}{\contentsline {subsubsection}{\numberline {18.1.3}Raspberry Pi}{35}{subsubsection.18.1.3}\protected@file@percent }
\abx@aux@fnpage{47}{35}
\abx@aux@fnpage{48}{35}
\citation{cytron}
\abx@aux@cite{0}{cytron}
\abx@aux@segm{0}{0}{cytron}
\citation{cytronDS}
\abx@aux@cite{0}{cytronDS}
\abx@aux@segm{0}{0}{cytronDS}
\@writefile{toc}{\contentsline {subsubsection}{\numberline {18.1.4}Cytron MD10C}{36}{subsubsection.18.1.4}\protected@file@percent }
\newlabel{CytronMCU}{{18.1.4}{36}{Cytron MD10C}{subsubsection.18.1.4}{}}
\@writefile{lof}{\contentsline {figure}{\numberline {26}{\ignorespaces MCU mounted}}{36}{figure.caption.27}\protected@file@percent }
\@writefile{lof}{\contentsline {figure}{\numberline {27}{\ignorespaces Maximum Ratings of MD10C}}{36}{figure.caption.28}\protected@file@percent }
\newlabel{MCUsection}{{18.1.4}{36}{Cytron MD10C}{figure.caption.28}{}}
\abx@aux@fnpage{49}{36}
\abx@aux@fnpage{50}{36}
\citation{noctua80mmspec}
\abx@aux@cite{0}{noctua80mmspec}
\abx@aux@segm{0}{0}{noctua80mmspec}
\citation{np_bx1Dummy}
\abx@aux@cite{0}{np_bx1Dummy}
\abx@aux@segm{0}{0}{np_bx1Dummy}
\citation{desklamp}
\abx@aux@cite{0}{desklamp}
\abx@aux@segm{0}{0}{desklamp}
\citation{5vpsu}
\abx@aux@cite{0}{5vpsu}
\abx@aux@segm{0}{0}{5vpsu}
\citation{5vpsuDS}
\abx@aux@cite{0}{5vpsuDS}
\abx@aux@segm{0}{0}{5vpsuDS}
\@writefile{toc}{\contentsline {subsubsection}{\numberline {18.1.5}Power Supplies}{37}{subsubsection.18.1.5}\protected@file@percent }
\@writefile{toc}{\contentsline {paragraph}{5V Power Supply}{37}{subsubsection.18.1.5}\protected@file@percent }
\newlabel{5VPSU}{{18.1.5}{37}{5V Power Supply}{subsubsection.18.1.5}{}}
\@writefile{lof}{\contentsline {figure}{\numberline {28}{\ignorespaces 5V PSU}}{37}{figure.caption.29}\protected@file@percent }
\@writefile{lot}{\contentsline {table}{\numberline {2}{\ignorespaces needed current}}{37}{table.caption.30}\protected@file@percent }
\abx@aux@fnpage{54}{37}
\citation{lttWhitefoam}
\abx@aux@cite{0}{lttWhitefoam}
\abx@aux@segm{0}{0}{lttWhitefoam}
\@writefile{toc}{\contentsline {paragraph}{12V Power Supply}{38}{table.caption.30}\protected@file@percent }
\newlabel{atempsusection}{{18.1.5}{38}{12V Power Supply}{table.caption.30}{}}
\abx@aux@fnpage{56}{38}
\abx@aux@fnpage{55}{38}
\@writefile{lof}{\contentsline {figure}{\numberline {30}{\ignorespaces Connected PSU}}{39}{figure.caption.32}\protected@file@percent }
\@writefile{toc}{\contentsline {subsection}{\numberline {18.2}Left Compartment}{39}{subsection.18.2}\protected@file@percent }
\@writefile{toc}{\contentsline {subsubsection}{\numberline {18.2.1}Thunderbolt Dock}{39}{subsubsection.18.2.1}\protected@file@percent }
\newlabel{thdsection}{{18.2.1}{39}{Thunderbolt Dock}{subsubsection.18.2.1}{}}
\citation{dockpsu}
\abx@aux@cite{0}{dockpsu}
\abx@aux@segm{0}{0}{dockpsu}
\citation{rbdtech}
\abx@aux@cite{0}{rbdtech}
\abx@aux@segm{0}{0}{rbdtech}
\@writefile{toc}{\contentsline {paragraph}{Why this dock}{40}{subsubsection.18.2.1}\protected@file@percent }
\@writefile{toc}{\contentsline {subsubsection}{\numberline {18.2.2}Power supplies}{40}{subsubsection.18.2.2}\protected@file@percent }
\@writefile{toc}{\contentsline {paragraph}{Dock power supply}{40}{subsubsection.18.2.2}\protected@file@percent }
\@writefile{toc}{\contentsline {paragraph}{Motor power supply}{40}{subsubsection.18.2.2}\protected@file@percent }
\abx@aux@fnpage{57}{40}
\abx@aux@fnpage{58}{40}
\@writefile{toc}{\contentsline {subsection}{\numberline {18.3}Monitor Stand}{41}{subsection.18.3}\protected@file@percent }
\@writefile{lof}{\contentsline {figure}{\numberline {31}{\ignorespaces Monitor Stand}}{41}{figure.caption.33}\protected@file@percent }
\citation{zv1}
\abx@aux@cite{0}{zv1}
\abx@aux@segm{0}{0}{zv1}
\citation{np_bx1Dummy}
\abx@aux@cite{0}{np_bx1Dummy}
\abx@aux@segm{0}{0}{np_bx1Dummy}
\citation{sonyzv1pic}
\abx@aux@cite{0}{sonyzv1pic}
\abx@aux@segm{0}{0}{sonyzv1pic}
\citation{videomicro}
\abx@aux@cite{0}{videomicro}
\abx@aux@segm{0}{0}{videomicro}
\@writefile{toc}{\contentsline {subsubsection}{\numberline {18.3.1}Camera}{42}{subsubsection.18.3.1}\protected@file@percent }
\newlabel{camera}{{18.3.1}{42}{Camera}{subsubsection.18.3.1}{}}
\@writefile{toc}{\contentsline {subsubsection}{\numberline {18.3.2}Microphone}{42}{subsubsection.18.3.2}\protected@file@percent }
\abx@aux@fnpage{59}{42}
\abx@aux@fnpage{60}{42}
\abx@aux@fnpage{62}{42}
\@writefile{toc}{\contentsline {subsubsection}{\numberline {18.3.3}Monitor}{43}{subsubsection.18.3.3}\protected@file@percent }
\newlabel{monitor}{{18.3.3}{43}{Monitor}{subsubsection.18.3.3}{}}
\@writefile{lof}{\contentsline {figure}{\numberline {34}{\ignorespaces VESA mount}}{43}{figure.caption.36}\protected@file@percent }
\@writefile{lof}{\contentsline {figure}{\numberline {35}{\ignorespaces Monitor mounted}}{43}{figure.caption.37}\protected@file@percent }
\citation{desklamp}
\abx@aux@cite{0}{desklamp}
\abx@aux@segm{0}{0}{desklamp}
\@writefile{toc}{\contentsline {subsubsection}{\numberline {18.3.4}Lights}{44}{subsubsection.18.3.4}\protected@file@percent }
\newlabel{lighting}{{18.3.4}{44}{Lights}{subsubsection.18.3.4}{}}
\@writefile{lof}{\contentsline {figure}{\numberline {36}{\ignorespaces 3D Model of the desk light}}{44}{figure.caption.38}\protected@file@percent }
\abx@aux@fnpage{63}{44}
\@writefile{lof}{\contentsline {figure}{\numberline {37}{\ignorespaces Inside the light}}{45}{figure.caption.39}\protected@file@percent }
\@writefile{lof}{\contentsline {figure}{\numberline {38}{\ignorespaces Light in the down position, lighting up the desk}}{45}{figure.caption.40}\protected@file@percent }
\@writefile{lof}{\contentsline {figure}{\numberline {39}{\ignorespaces Light in the up position, lighting up the user}}{46}{figure.caption.41}\protected@file@percent }
\@writefile{lof}{\contentsline {figure}{\numberline {40}{\ignorespaces Light illuminates the desk's surface}}{46}{figure.caption.42}\protected@file@percent }
\@writefile{toc}{\contentsline {section}{\numberline {19}Tabletop}{47}{section.19}\protected@file@percent }
\@writefile{lof}{\contentsline {figure}{\numberline {41}{\ignorespaces Table Versions}}{47}{figure.caption.43}\protected@file@percent }
\@writefile{lof}{\contentsline {figure}{\numberline {42}{\ignorespaces 3D Model of the desk}}{48}{figure.caption.44}\protected@file@percent }
\@writefile{lof}{\contentsline {figure}{\numberline {43}{\ignorespaces Raw tabletop, with compartment walls, seen from the bottom}}{48}{figure.caption.45}\protected@file@percent }
\newlabel{tableraw}{{43}{48}{Raw tabletop, with compartment walls, seen from the bottom}{figure.caption.45}{}}
\citation{sailer2009comparative}
\abx@aux@cite{0}{sailer2009comparative}
\abx@aux@segm{0}{0}{sailer2009comparative}
\@writefile{lof}{\contentsline {figure}{\numberline {44}{\ignorespaces \textit  {Work-isle}, 3 desks joint together}}{49}{figure.caption.46}\protected@file@percent }
\abx@aux@fnpage{64}{49}
\@writefile{toc}{\contentsline {section}{\numberline {20}Compartments}{50}{section.20}\protected@file@percent }
\@writefile{lof}{\contentsline {figure}{\numberline {45}{\ignorespaces Raw tabletop, with compartment walls glued}}{50}{figure.caption.47}\protected@file@percent }
\@writefile{lof}{\contentsline {figure}{\numberline {46}{\ignorespaces Devices mounted to the desk}}{50}{figure.caption.48}\protected@file@percent }
\newlabel{devicemounted}{{46}{50}{Devices mounted to the desk}{figure.caption.48}{}}
\@writefile{lof}{\contentsline {figure}{\numberline {47}{\ignorespaces Brakets securing parts such as PSU}}{51}{figure.caption.49}\protected@file@percent }
\newlabel{brackets}{{47}{51}{Brakets securing parts such as PSU}{figure.caption.49}{}}
\@writefile{toc}{\contentsline {section}{\numberline {21}Central area of the desk}{52}{section.21}\protected@file@percent }
\@writefile{toc}{\contentsline {subsection}{\numberline {21.1}Ethernet Switch}{52}{subsection.21.1}\protected@file@percent }
\@writefile{lof}{\contentsline {figure}{\numberline {48}{\ignorespaces Ethernet Switch}}{52}{figure.caption.50}\protected@file@percent }
\@writefile{toc}{\contentsline {section}{\numberline {22}operating terminal}{53}{section.22}\protected@file@percent }
\@writefile{toc}{\contentsline {subsection}{\numberline {22.1}Hotkeys}{53}{subsection.22.1}\protected@file@percent }
\@writefile{lof}{\contentsline {figure}{\numberline {49}{\ignorespaces Hotkey buttons}}{53}{figure.caption.51}\protected@file@percent }
\@writefile{toc}{\contentsline {subsection}{\numberline {22.2}Status Screen}{53}{subsection.22.2}\protected@file@percent }
\newlabel{statusscreenConcept}{{22.2}{53}{Status Screen}{subsection.22.2}{}}
\@writefile{lof}{\contentsline {figure}{\numberline {50}{\ignorespaces Status screen during boot sequence}}{53}{figure.caption.52}\protected@file@percent }
\citation{heightadjustableFoot}
\abx@aux@cite{0}{heightadjustableFoot}
\abx@aux@segm{0}{0}{heightadjustableFoot}
\@writefile{toc}{\contentsline {section}{\numberline {23}Table motor}{54}{section.23}\protected@file@percent }
\newlabel{tableMotorSec}{{23}{54}{Table motor}{section.23}{}}
\@writefile{lof}{\contentsline {figure}{\numberline {51}{\ignorespaces Table frame}}{54}{figure.caption.53}\protected@file@percent }
\abx@aux@fnpage{65}{54}
\@writefile{lof}{\contentsline {figure}{\numberline {52}{\ignorespaces The supplied up and down switch}}{55}{figure.caption.54}\protected@file@percent }
\@writefile{toc}{\contentsline {section}{\numberline {24}Used microcontrollers}{56}{section.24}\protected@file@percent }
\@writefile{toc}{\contentsline {subsection}{\numberline {24.1}Topology}{56}{subsection.24.1}\protected@file@percent }
\@writefile{toc}{\contentsline {subsubsection}{\numberline {24.1.1}v1 - Development version}{56}{subsubsection.24.1.1}\protected@file@percent }
\@writefile{lof}{\contentsline {figure}{\numberline {53}{\ignorespaces Microcontroller topology version 1}}{56}{figure.caption.55}\protected@file@percent }
\citation{esp32}
\abx@aux@cite{0}{esp32}
\abx@aux@segm{0}{0}{esp32}
\@writefile{toc}{\contentsline {subsubsection}{\numberline {24.1.2}v2 - Deployed version}{57}{subsubsection.24.1.2}\protected@file@percent }
\@writefile{lof}{\contentsline {figure}{\numberline {54}{\ignorespaces Microcontroller topology version 2}}{57}{figure.caption.56}\protected@file@percent }
\@writefile{toc}{\contentsline {subsection}{\numberline {24.2}Esp32}{57}{subsection.24.2}\protected@file@percent }
\@writefile{toc}{\contentsline {subsubsection}{\numberline {24.2.1}Information about the Microcontroller}{57}{subsubsection.24.2.1}\protected@file@percent }
\citation{c++wiki}
\abx@aux@cite{0}{c++wiki}
\abx@aux@segm{0}{0}{c++wiki}
\citation{dotnet}
\abx@aux@cite{0}{dotnet}
\abx@aux@segm{0}{0}{dotnet}
\@writefile{toc}{\contentsline {subsubsection}{\numberline {24.2.2}Implementation}{58}{subsubsection.24.2.2}\protected@file@percent }
\@writefile{lof}{\contentsline {figure}{\numberline {55}{\ignorespaces Esp 32 DevKit}}{58}{figure.caption.57}\protected@file@percent }
\@writefile{toc}{\contentsline {subsubsection}{\numberline {24.2.3}Integrated development environment}{58}{subsubsection.24.2.3}\protected@file@percent }
\@writefile{toc}{\contentsline {subsection}{\numberline {24.3}Raspberry Pi}{58}{subsection.24.3}\protected@file@percent }
\newlabel{raspPICap}{{24.3}{58}{Raspberry Pi}{subsection.24.3}{}}
\abx@aux@fnpage{66}{58}
\abx@aux@fnpage{67}{58}
\abx@aux@fnpage{68}{58}
\citation{i2c}
\abx@aux@cite{0}{i2c}
\abx@aux@segm{0}{0}{i2c}
\@writefile{toc}{\contentsline {section}{\numberline {25}Adapter PCBs}{59}{section.25}\protected@file@percent }
\newlabel{pcb}{{25}{59}{Adapter PCBs}{section.25}{}}
\@writefile{toc}{\contentsline {subsection}{\numberline {25.1}prototype 1}{59}{subsection.25.1}\protected@file@percent }
\@writefile{lof}{\contentsline {figure}{\numberline {56}{\ignorespaces PCB Design Version 1}}{59}{figure.caption.58}\protected@file@percent }
\@writefile{toc}{\contentsline {subsubsection}{\numberline {25.1.1}Status Screen}{59}{subsubsection.25.1.1}\protected@file@percent }
\abx@aux@fnpage{69}{59}
\citation{hbridge}
\abx@aux@cite{0}{hbridge}
\abx@aux@segm{0}{0}{hbridge}
\citation{hbridgeDatasheet}
\abx@aux@cite{0}{hbridgeDatasheet}
\abx@aux@segm{0}{0}{hbridgeDatasheet}
\citation{hbridgeDatasheet}
\abx@aux@cite{0}{hbridgeDatasheet}
\abx@aux@segm{0}{0}{hbridgeDatasheet}
\@writefile{toc}{\contentsline {subsubsection}{\numberline {25.1.2}H-Bridge}{60}{subsubsection.25.1.2}\protected@file@percent }
\newlabel{v1hbridge}{{25.1.2}{60}{H-Bridge}{subsubsection.25.1.2}{}}
\@writefile{toc}{\contentsline {paragraph}{Used H-Bridge Chip - ROHM BD62130}{60}{subsubsection.25.1.2}\protected@file@percent }
\@writefile{lot}{\contentsline {table}{\numberline {3}{\ignorespaces Characteristics table H-bridge IC}}{60}{table.caption.59}\protected@file@percent }
\@writefile{lof}{\contentsline {figure}{\numberline {57}{\ignorespaces H-Bridge implementation PCB Version 1}}{60}{figure.caption.60}\protected@file@percent }
\abx@aux@fnpage{70}{60}
\abx@aux@fnpage{71}{60}
\@writefile{toc}{\contentsline {subparagraph}{How the IC was driven}{61}{figure.caption.60}\protected@file@percent }
\newlabel{hbridgedriven}{{25.1.2}{61}{How the IC was driven}{figure.caption.60}{}}
\@writefile{lot}{\contentsline {table}{\numberline {4}{\ignorespaces Addressing the H-bridge IC}}{61}{table.caption.61}\protected@file@percent }
\newlabel{addressingTableHbridge}{{4}{61}{Addressing the H-bridge IC}{table.caption.61}{}}
\@writefile{toc}{\contentsline {paragraph}{Possible errors}{61}{table.caption.61}\protected@file@percent }
\@writefile{toc}{\contentsline {subparagraph}{Theory 1 - wrong command}{61}{table.caption.61}\protected@file@percent }
\@writefile{toc}{\contentsline {subparagraph}{Theory 2 - no external over current diodes}{61}{table.caption.61}\protected@file@percent }
\citation{hbridgeDatasheet}
\abx@aux@cite{0}{hbridgeDatasheet}
\abx@aux@segm{0}{0}{hbridgeDatasheet}
\@writefile{lof}{\contentsline {figure}{\numberline {58}{\ignorespaces H bridge internal view}}{62}{figure.caption.62}\protected@file@percent }
\newlabel{figHbridgInteral}{{58}{62}{H bridge internal view}{figure.caption.62}{}}
\@writefile{toc}{\contentsline {subparagraph}{Theory 3 - over current at motor start}{62}{figure.caption.62}\protected@file@percent }
\@writefile{lof}{\contentsline {figure}{\numberline {59}{\ignorespaces Replacement circuit diagram of the motor}}{62}{figure.caption.63}\protected@file@percent }
\newlabel{inrushcurrent}{{59}{62}{Replacement circuit diagram of the motor}{figure.caption.63}{}}
\abx@aux@fnpage{73}{62}
\citation{hbridgeDatasheet}
\abx@aux@cite{0}{hbridgeDatasheet}
\abx@aux@segm{0}{0}{hbridgeDatasheet}
\citation{nocutafanpinout}
\abx@aux@cite{0}{nocutafanpinout}
\abx@aux@segm{0}{0}{nocutafanpinout}
\newlabel{inrushcurrentcalc}{{2}{63}{Theory 3 - over current at motor start}{equation.25.2}{}}
\@writefile{lof}{\contentsline {figure}{\numberline {60}{\ignorespaces Calculated inrush current}}{63}{figure.caption.65}\protected@file@percent }
\@writefile{toc}{\contentsline {paragraph}{Conclusion}{63}{figure.caption.65}\protected@file@percent }
\@writefile{toc}{\contentsline {subsubsection}{\numberline {25.1.3}Fans}{63}{subsubsection.25.1.3}\protected@file@percent }
\newlabel{fanspcb}{{25.1.3}{63}{Fans}{subsubsection.25.1.3}{}}
\@writefile{lof}{\contentsline {figure}{\numberline {61}{\ignorespaces Fan Pins PCB version 1}}{63}{figure.caption.66}\protected@file@percent }
\abx@aux@fnpage{74}{63}
\abx@aux@fnpage{75}{63}
\@writefile{lof}{\contentsline {figure}{\numberline {62}{\ignorespaces Nocuta fan configuration}}{64}{figure.caption.67}\protected@file@percent }
\@writefile{toc}{\contentsline {subsubsection}{\numberline {25.1.4}Servo}{65}{subsubsection.25.1.4}\protected@file@percent }
\newlabel{sectionservoPCB}{{25.1.4}{65}{Servo}{subsubsection.25.1.4}{}}
\@writefile{lof}{\contentsline {figure}{\numberline {63}{\ignorespaces Servo implementation PCB Version 1}}{65}{figure.caption.68}\protected@file@percent }
\@writefile{toc}{\contentsline {subsubsection}{\numberline {25.1.5}Buttons}{65}{subsubsection.25.1.5}\protected@file@percent }
\newlabel{buttonspcbv1}{{25.1.5}{65}{Buttons}{subsubsection.25.1.5}{}}
\@writefile{lof}{\contentsline {figure}{\numberline {64}{\ignorespaces Button implementation PCB Version 1}}{65}{figure.caption.69}\protected@file@percent }
\@writefile{toc}{\contentsline {subsubsection}{\numberline {25.1.6}Power}{65}{subsubsection.25.1.6}\protected@file@percent }
\@writefile{toc}{\contentsline {subsubsection}{\numberline {25.1.7}Additional Pins}{65}{subsubsection.25.1.7}\protected@file@percent }
\citation{cytronDS}
\abx@aux@cite{0}{cytronDS}
\abx@aux@segm{0}{0}{cytronDS}
\@writefile{toc}{\contentsline {subsection}{\numberline {25.2}prototype 2}{66}{subsection.25.2}\protected@file@percent }
\newlabel{prototype2}{{25.2}{66}{prototype 2}{subsection.25.2}{}}
\@writefile{toc}{\contentsline {subsubsection}{\numberline {25.2.1}Motor control-board}{66}{subsubsection.25.2.1}\protected@file@percent }
\@writefile{lof}{\contentsline {figure}{\numberline {65}{\ignorespaces MD10C connection pins}}{66}{figure.caption.70}\protected@file@percent }
\@writefile{lof}{\contentsline {figure}{\numberline {66}{\ignorespaces MD10C on PCB version 2}}{66}{figure.caption.71}\protected@file@percent }
\citation{oledscreenpic}
\abx@aux@cite{0}{oledscreenpic}
\abx@aux@segm{0}{0}{oledscreenpic}
\@writefile{toc}{\contentsline {subsubsection}{\numberline {25.2.2}Fans}{67}{subsubsection.25.2.2}\protected@file@percent }
\@writefile{lof}{\contentsline {figure}{\numberline {67}{\ignorespaces Fans on PCB version 2}}{67}{figure.caption.72}\protected@file@percent }
\@writefile{toc}{\contentsline {subsubsection}{\numberline {25.2.3}OLED screen}{67}{subsubsection.25.2.3}\protected@file@percent }
\newlabel{PCBoledconnection}{{25.2.3}{67}{OLED screen}{subsubsection.25.2.3}{}}
\@writefile{lof}{\contentsline {figure}{\numberline {68}{\ignorespaces OLED screen pinout\blx@tocontentsinit {0}\autocite {oledscreenpic}}}{67}{figure.caption.73}\protected@file@percent }
\newlabel{screenarea}{{69a}{67}{Screen Pads in PCB version 2}{figure.caption.74}{}}
\newlabel{sub@screenarea}{{a}{67}{Screen Pads in PCB version 2}{figure.caption.74}{}}
\@writefile{lof}{\contentsline {figure}{\numberline {69}{\ignorespaces Screen on PCB version 2}}{67}{figure.caption.74}\protected@file@percent }
\@writefile{toc}{\contentsline {subsubsection}{\numberline {25.2.4}Light section}{68}{subsubsection.25.2.4}\protected@file@percent }
\@writefile{lof}{\contentsline {figure}{\numberline {70}{\ignorespaces Lighting Area on PCB version 2}}{68}{figure.caption.75}\protected@file@percent }
\@writefile{toc}{\contentsline {subsubsection}{\numberline {25.2.5}Buttons}{68}{subsubsection.25.2.5}\protected@file@percent }
\@writefile{toc}{\contentsline {subsubsection}{\numberline {25.2.6}Additional Pins}{68}{subsubsection.25.2.6}\protected@file@percent }
\@writefile{lof}{\contentsline {figure}{\numberline {71}{\ignorespaces Expansion opportunities - PCB v2}}{68}{figure.caption.76}\protected@file@percent }
\@writefile{toc}{\contentsline {section}{\numberline {26}Firmware}{69}{section.26}\protected@file@percent }
\@writefile{toc}{\contentsline {subsection}{\numberline {26.1}Firmware version 1}{69}{subsection.26.1}\protected@file@percent }
\newlabel{firmesp}{{26.1}{69}{Firmware version 1}{subsection.26.1}{}}
\@writefile{lof}{\contentsline {figure}{\numberline {72}{\ignorespaces Base structure of Esp 32 functions}}{69}{figure.caption.77}\protected@file@percent }
\@writefile{toc}{\contentsline {subsubsection}{\numberline {26.1.1}Handling incoming I2C}{70}{subsubsection.26.1.1}\protected@file@percent }
\@writefile{lof}{\contentsline {figure}{\numberline {73}{\ignorespaces I2C include Esp 32}}{70}{figure.caption.78}\protected@file@percent }
\@writefile{lof}{\contentsline {figure}{\numberline {74}{\ignorespaces Handling incoming I2C Data}}{70}{figure.caption.79}\protected@file@percent }
\citation{c++delay}
\abx@aux@cite{0}{c++delay}
\abx@aux@segm{0}{0}{c++delay}
\citation{c++analogwrite}
\abx@aux@cite{0}{c++analogwrite}
\abx@aux@segm{0}{0}{c++analogwrite}
\@writefile{toc}{\contentsline {subsubsection}{\numberline {26.1.2}Fans}{71}{subsubsection.26.1.2}\protected@file@percent }
\@writefile{lof}{\contentsline {figure}{\numberline {75}{\ignorespaces Fan startup snippet}}{71}{figure.caption.80}\protected@file@percent }
\newlabel{fansnippet}{{75}{71}{Fan startup snippet}{figure.caption.80}{}}
\abx@aux@fnpage{78}{71}
\abx@aux@fnpage{79}{71}
\@writefile{toc}{\contentsline {subsubsection}{\numberline {26.1.3}H-Bridge}{72}{subsubsection.26.1.3}\protected@file@percent }
\@writefile{lof}{\contentsline {figure}{\numberline {76}{\ignorespaces Table moving functions v1}}{72}{figure.caption.81}\protected@file@percent }
\citation{python}
\abx@aux@cite{0}{python}
\abx@aux@segm{0}{0}{python}
\@writefile{toc}{\contentsline {subsection}{\numberline {26.2}Firmware version 2}{73}{subsection.26.2}\protected@file@percent }
\@writefile{lof}{\contentsline {figure}{\numberline {77}{\ignorespaces Meetinghub configuration v2}}{73}{figure.caption.82}\protected@file@percent }
\abx@aux@fnpage{80}{73}
\citation{dotnet}
\abx@aux@cite{0}{dotnet}
\abx@aux@segm{0}{0}{dotnet}
\citation{fastapi}
\abx@aux@cite{0}{fastapi}
\abx@aux@segm{0}{0}{fastapi}
\@writefile{toc}{\contentsline {section}{\numberline {27}API}{74}{section.27}\protected@file@percent }
\newlabel{apidoc}{{27}{74}{API}{section.27}{}}
\@writefile{toc}{\contentsline {subsection}{\numberline {27.1}API version 1 - Blackmagic Switchers API}{74}{subsection.27.1}\protected@file@percent }
\newlabel{apiv1sec}{{27.1}{74}{API version 1 - Blackmagic Switchers API}{subsection.27.1}{}}
\@writefile{lof}{\contentsline {figure}{\numberline {78}{\ignorespaces BMD Switchers API in use}}{74}{figure.caption.83}\protected@file@percent }
\abx@aux@fnpage{81}{74}
\abx@aux@fnpage{82}{74}
\@writefile{lof}{\contentsline {figure}{\numberline {79}{\ignorespaces Basic switching between channels - API v1}}{75}{figure.caption.84}\protected@file@percent }
\citation{runDLLonLinux}
\abx@aux@cite{0}{runDLLonLinux}
\abx@aux@segm{0}{0}{runDLLonLinux}
\citation{fonLinux}
\abx@aux@cite{0}{fonLinux}
\abx@aux@segm{0}{0}{fonLinux}
\citation{WINE}
\abx@aux@cite{0}{WINE}
\abx@aux@segm{0}{0}{WINE}
\@writefile{lof}{\contentsline {figure}{\numberline {80}{\ignorespaces Publishing configuration - API v1}}{76}{figure.caption.85}\protected@file@percent }
\@writefile{toc}{\contentsline {paragraph}{The DLL is a Win32 DLL}{76}{figure.caption.85}\protected@file@percent }
\newlabel{errorAPIv1}{{27.1}{76}{The DLL is a Win32 DLL}{figure.caption.85}{}}
\abx@aux@fnpage{83}{76}
\abx@aux@fnpage{84}{76}
\abx@aux@fnpage{85}{76}
\citation{pyatem}
\abx@aux@cite{0}{pyatem}
\abx@aux@segm{0}{0}{pyatem}
\citation{fastapi}
\abx@aux@cite{0}{fastapi}
\abx@aux@segm{0}{0}{fastapi}
\citation{pyatemgithub}
\abx@aux@cite{0}{pyatemgithub}
\abx@aux@segm{0}{0}{pyatemgithub}
\citation{pyatemPIP}
\abx@aux@cite{0}{pyatemPIP}
\abx@aux@segm{0}{0}{pyatemPIP}
\@writefile{toc}{\contentsline {subsection}{\numberline {27.2}API version 2 - FastAPI}{77}{subsection.27.2}\protected@file@percent }
\newlabel{apiv2}{{27.2}{77}{API version 2 - FastAPI}{subsection.27.2}{}}
\@writefile{toc}{\contentsline {subsubsection}{\numberline {27.2.1}PyATEMMax}{77}{subsubsection.27.2.1}\protected@file@percent }
\@writefile{lof}{\contentsline {figure}{\numberline {81}{\ignorespaces PyATEMmax initialisation}}{77}{figure.caption.86}\protected@file@percent }
\@writefile{lof}{\contentsline {figure}{\numberline {82}{\ignorespaces Changing Program Source - API v2}}{77}{figure.caption.87}\protected@file@percent }
\newlabel{atemcall}{{82}{77}{Changing Program Source - API v2}{figure.caption.87}{}}
\abx@aux@fnpage{86}{77}
\abx@aux@fnpage{87}{77}
\abx@aux@fnpage{88}{77}
\abx@aux@fnpage{89}{77}
\citation{fastapi}
\abx@aux@cite{0}{fastapi}
\abx@aux@segm{0}{0}{fastapi}
\citation{lumacore}
\abx@aux@cite{0}{lumacore}
\abx@aux@segm{0}{0}{lumacore}
\@writefile{toc}{\contentsline {subsubsection}{\numberline {27.2.2}FastAPI}{78}{subsubsection.27.2.2}\protected@file@percent }
\@writefile{toc}{\contentsline {subsubsection}{\numberline {27.2.3}Table calls}{78}{subsubsection.27.2.3}\protected@file@percent }
\@writefile{lof}{\contentsline {figure}{\numberline {83}{\ignorespaces Regulator for controlling the motor height}}{78}{figure.caption.88}\protected@file@percent }
\abx@aux@fnpage{90}{78}
\abx@aux@fnpage{91}{78}
\@writefile{lof}{\contentsline {figure}{\numberline {84}{\ignorespaces Nulling function for the desks motor}}{79}{figure.caption.89}\protected@file@percent }
\@writefile{toc}{\contentsline {subsection}{\numberline {27.3}Hotkeys}{79}{subsection.27.3}\protected@file@percent }
\@writefile{lof}{\contentsline {figure}{\numberline {85}{\ignorespaces All transfer parameters, website end - API v5}}{79}{figure.caption.90}\protected@file@percent }
\@writefile{lof}{\contentsline {figure}{\numberline {86}{\ignorespaces Change presets of Hotkey API call}}{80}{figure.caption.91}\protected@file@percent }
\citation{reactjs}
\abx@aux@cite{0}{reactjs}
\abx@aux@segm{0}{0}{reactjs}
\citation{reactcomponents}
\abx@aux@cite{0}{reactcomponents}
\abx@aux@segm{0}{0}{reactcomponents}
\citation{reactuseffect}
\abx@aux@cite{0}{reactuseffect}
\abx@aux@segm{0}{0}{reactuseffect}
\citation{reactstatehandler}
\abx@aux@cite{0}{reactstatehandler}
\abx@aux@segm{0}{0}{reactstatehandler}
\@writefile{toc}{\contentsline {section}{\numberline {28}Website}{81}{section.28}\protected@file@percent }
\newlabel{website}{{28}{81}{Website}{section.28}{}}
\@writefile{toc}{\contentsline {subsection}{\numberline {28.1}ReactJS}{81}{subsection.28.1}\protected@file@percent }
\@writefile{lof}{\contentsline {figure}{\numberline {87}{\ignorespaces React Components}}{81}{figure.caption.92}\protected@file@percent }
\abx@aux@fnpage{92}{81}
\abx@aux@fnpage{93}{81}
\abx@aux@fnpage{94}{81}
\abx@aux@fnpage{95}{81}
\citation{nextui}
\abx@aux@cite{0}{nextui}
\abx@aux@segm{0}{0}{nextui}
\citation{nextui}
\abx@aux@cite{0}{nextui}
\abx@aux@segm{0}{0}{nextui}
\@writefile{toc}{\contentsline {subsection}{\numberline {28.2}Basic structure of the website}{82}{subsection.28.2}\protected@file@percent }
\@writefile{lof}{\contentsline {figure}{\numberline {88}{\ignorespaces Some example NextUI components\blx@tocontentsinit {0}\autocite {nextui}}}{82}{figure.caption.93}\protected@file@percent }
\abx@aux@fnpage{96}{82}
\@writefile{toc}{\contentsline {subsubsection}{\numberline {28.2.1}Overview}{83}{subsubsection.28.2.1}\protected@file@percent }
\@writefile{toc}{\contentsline {paragraph}{Home Page}{83}{subsubsection.28.2.1}\protected@file@percent }
\@writefile{lof}{\contentsline {figure}{\numberline {89}{\ignorespaces Website homepage}}{83}{figure.caption.94}\protected@file@percent }
\@writefile{toc}{\contentsline {paragraph}{Calendar Page}{84}{figure.caption.94}\protected@file@percent }
\@writefile{lof}{\contentsline {figure}{\numberline {90}{\ignorespaces Website calendar page}}{84}{figure.caption.95}\protected@file@percent }
\@writefile{toc}{\contentsline {paragraph}{Presets Page}{85}{figure.caption.95}\protected@file@percent }
\@writefile{lof}{\contentsline {figure}{\numberline {91}{\ignorespaces Website presets Page}}{85}{figure.caption.96}\protected@file@percent }
\@writefile{lof}{\contentsline {figure}{\numberline {92}{\ignorespaces Hotkey presets send function}}{86}{figure.caption.97}\protected@file@percent }
\@writefile{toc}{\contentsline {paragraph}{Settings Page}{87}{figure.caption.97}\protected@file@percent }
\@writefile{lof}{\contentsline {figure}{\numberline {93}{\ignorespaces Website settings page}}{87}{figure.caption.98}\protected@file@percent }
\@writefile{toc}{\contentsline {subsubsection}{\numberline {28.2.2}Important Components}{88}{subsubsection.28.2.2}\protected@file@percent }
\@writefile{toc}{\contentsline {paragraph}{Router}{88}{subsubsection.28.2.2}\protected@file@percent }
\@writefile{lof}{\contentsline {figure}{\numberline {94}{\ignorespaces React Router}}{88}{figure.caption.99}\protected@file@percent }
\citation{nextuiTabs}
\abx@aux@cite{0}{nextuiTabs}
\abx@aux@segm{0}{0}{nextuiTabs}
\@writefile{toc}{\contentsline {paragraph}{NextUI Component - Tabs}{89}{figure.caption.99}\protected@file@percent }
\@writefile{lof}{\contentsline {figure}{\numberline {95}{\ignorespaces Website navigation bar}}{89}{figure.caption.100}\protected@file@percent }
\@writefile{lof}{\contentsline {figure}{\numberline {96}{\ignorespaces Importing NextUI components}}{89}{figure.caption.101}\protected@file@percent }
\@writefile{lof}{\contentsline {figure}{\numberline {97}{\ignorespaces Tabs structure}}{89}{figure.caption.102}\protected@file@percent }
\abx@aux@fnpage{98}{89}
\citation{notificationlistener}
\abx@aux@cite{0}{notificationlistener}
\abx@aux@segm{0}{0}{notificationlistener}
\citation{winui3}
\abx@aux@cite{0}{winui3}
\abx@aux@segm{0}{0}{winui3}
\citation{fluentUI}
\abx@aux@cite{0}{fluentUI}
\abx@aux@segm{0}{0}{fluentUI}
\@writefile{toc}{\contentsline {section}{\numberline {29}Windows Client}{90}{section.29}\protected@file@percent }
\newlabel{windowsclient}{{29}{90}{Windows Client}{section.29}{}}
\abx@aux@fnpage{99}{90}
\abx@aux@fnpage{100}{90}
\abx@aux@fnpage{101}{90}
\@writefile{toc}{\contentsline {part}{V\hspace  {1em}Conclusion}{91}{part.5}\protected@file@percent }
\@writefile{toc}{\contentsline {section}{\numberline {30}Did the implementation work as planned?}{91}{section.30}\protected@file@percent }
\@writefile{toc}{\contentsline {section}{\numberline {31}Occurred errors}{91}{section.31}\protected@file@percent }
\@writefile{toc}{\contentsline {subsection}{\numberline {31.1}H-Bridge problem}{91}{subsection.31.1}\protected@file@percent }
\@writefile{toc}{\contentsline {subsection}{\numberline {31.2}ASP NET errors}{91}{subsection.31.2}\protected@file@percent }
\@writefile{toc}{\contentsline {part}{VI\hspace  {1em}directories}{91}{part.6}\protected@file@percent }
\abx@aux@page{111}{97}
\abx@aux@page{112}{97}
\abx@aux@page{113}{97}
\abx@aux@page{114}{97}
\abx@aux@page{115}{97}
\abx@aux@page{116}{97}
\abx@aux@page{117}{97}
\abx@aux@page{118}{97}
\abx@aux@page{119}{97}
\abx@aux@page{120}{97}
\abx@aux@page{121}{97}
\abx@aux@page{122}{97}
\abx@aux@page{123}{97}
\abx@aux@page{124}{98}
\abx@aux@page{125}{98}
\abx@aux@page{126}{98}
\abx@aux@page{127}{98}
\abx@aux@page{128}{98}
\abx@aux@page{129}{98}
\abx@aux@page{130}{98}
\abx@aux@page{131}{98}
\abx@aux@page{132}{98}
\abx@aux@page{133}{98}
\abx@aux@page{134}{98}
\abx@aux@page{135}{98}
\abx@aux@page{136}{98}
\abx@aux@page{137}{99}
\abx@aux@page{138}{99}
\abx@aux@page{139}{99}
\abx@aux@page{140}{99}
\abx@aux@page{141}{99}
\abx@aux@page{142}{99}
\abx@aux@page{143}{99}
\abx@aux@page{144}{99}
\abx@aux@page{145}{99}
\abx@aux@page{146}{99}
\abx@aux@page{147}{99}
\abx@aux@page{148}{99}
\abx@aux@page{149}{99}
\abx@aux@page{150}{99}
\abx@aux@page{151}{99}
\abx@aux@page{152}{100}
\abx@aux@page{153}{100}
\abx@aux@page{154}{100}
\abx@aux@page{155}{100}
\abx@aux@page{156}{100}
\abx@aux@page{157}{100}
\abx@aux@page{158}{100}
\abx@aux@page{159}{100}
\abx@aux@page{160}{100}
\abx@aux@page{161}{100}
\abx@aux@page{162}{100}
\abx@aux@page{163}{100}
\abx@aux@page{164}{100}
\abx@aux@page{165}{100}
\abx@aux@page{166}{100}
\abx@aux@page{167}{101}
\abx@aux@page{168}{101}
\abx@aux@page{169}{101}
\abx@aux@page{170}{101}
\abx@aux@page{171}{101}
\abx@aux@page{172}{101}
\abx@aux@page{173}{101}
\abx@aux@page{174}{101}
\abx@aux@page{175}{101}
\abx@aux@page{176}{101}
\abx@aux@page{177}{101}
\abx@aux@page{178}{101}
\abx@aux@page{179}{102}
\abx@aux@page{180}{102}
\abx@aux@page{181}{102}
\abx@aux@page{182}{102}
\abx@aux@page{183}{102}
\abx@aux@page{184}{102}
\abx@aux@page{185}{102}
\abx@aux@page{186}{102}
\abx@aux@page{187}{102}
\abx@aux@page{188}{102}
\abx@aux@page{189}{102}
\abx@aux@page{190}{102}
\abx@aux@page{191}{102}
\abx@aux@page{192}{102}
\abx@aux@page{193}{102}
\abx@aux@page{194}{103}
\abx@aux@page{195}{103}
\abx@aux@page{196}{103}
\@writefile{toc}{\contentsline {section}{\numberline {32}Attachments}{104}{section.32}\protected@file@percent }
\@writefile{toc}{\contentsline {subsection}{\numberline {32.1}All API calls}{104}{subsection.32.1}\protected@file@percent }
\@writefile{lof}{\contentsline {figure}{\numberline {98}{\ignorespaces All API calls}}{104}{figure.caption.103}\protected@file@percent }
\newlabel{allapicalls}{{98}{104}{All API calls}{figure.caption.103}{}}
\@writefile{toc}{\contentsline {subsection}{\numberline {32.2}\ignorespaces Project manual}{105}{subsection.32.2}\protected@file@percent }
\newlabel{pjmanual}{{32.2}{105}{\ignorespaces Project manual}{subsection.32.2}{}}
\@writefile{toc}{\contentsline {subsection}{\numberline {32.3}Schematic v1}{120}{subsection.32.3}\protected@file@percent }
\newlabel{pcbv1sch}{{32.2}{121}{All API calls}{subsection.32.3}{}}
\@writefile{toc}{\contentsline {subsection}{\numberline {32.4}PCB v1}{121}{subsection.32.4}\protected@file@percent }
\newlabel{pcbv1brd}{{32.2}{122}{All API calls}{subsection.32.4}{}}
\@writefile{toc}{\contentsline {subsection}{\numberline {32.5}Schematic v2}{122}{subsection.32.5}\protected@file@percent }
\newlabel{pcbv2sch}{{32.2}{123}{All API calls}{subsection.32.5}{}}
\@writefile{toc}{\contentsline {subsection}{\numberline {32.6}PCB v2}{123}{subsection.32.6}\protected@file@percent }
\newlabel{pcbv2brd}{{32.2}{124}{All API calls}{subsection.32.6}{}}
\@writefile{toc}{\contentsline {subsection}{\numberline {32.7}PCB v2 Bill of Material}{124}{subsection.32.7}\protected@file@percent }
\newlabel{pcbv2bom}{{32.2}{125}{All API calls}{subsection.32.7}{}}
\@writefile{toc}{\contentsline {subsection}{\numberline {32.8}Drawing of stand}{125}{subsection.32.8}\protected@file@percent }
\newlabel{standdrawing}{{32.2}{126}{All API calls}{subsection.32.8}{}}
\@writefile{toc}{\contentsline {subsection}{\numberline {32.9}Drawing of tabletop}{126}{subsection.32.9}\protected@file@percent }
\newlabel{tabletopdrawing}{{32.2}{127}{All API calls}{subsection.32.9}{}}
\@writefile{toc}{\contentsline {subsection}{\numberline {32.10}Time sheet}{127}{subsection.32.10}\protected@file@percent }
\newlabel{timesheet}{{32.2}{128}{All API calls}{subsection.32.10}{}}
\gdef\minted@oldcachelist{,
  default.pygstyle,
  FFDA70F68B7E8740AE1BF680263C82FFEEA8103A9DAD207BAF02926152F9ADA9.pygtex,
  76064952451637C941F23C30E0549AF9EEA8103A9DAD207BAF02926152F9ADA9.pygtex,
  C7416CFA9DE3E1E630C1C0431A160987EEA8103A9DAD207BAF02926152F9ADA9.pygtex,
  06C968A70D6DE9D710726547EBDFE7BFEEA8103A9DAD207BAF02926152F9ADA9.pygtex,
  15F0516C0BC2FB287AA51C1558FA76CDDEE390B42486568476A98789A24869C5.pygtex,
  8461872A94F4430706829D3BF220E6C3DD601BAE789B4EAE037A0DED7D06F737.pygtex,
  A85F4BF4E4A2353D4B96B4263F87397FDD601BAE789B4EAE037A0DED7D06F737.pygtex,
  2F409353D97115C3B0B6CBADA6A44F36DD601BAE789B4EAE037A0DED7D06F737.pygtex,
  6396F5F9F9C216955DA5135B521D0785DD601BAE789B4EAE037A0DED7D06F737.pygtex,
  97F3D5C06210B05B8BF215D9ABEB81B9BE9D39A894725899493E3763BC89BE90.pygtex,
  5E66225D81285EE01A8D5AF0756BFF0EDD601BAE789B4EAE037A0DED7D06F737.pygtex,
  938AF72CFBC6C524227A440539088ECEBE9D39A894725899493E3763BC89BE90.pygtex,
  6B1788383019A80C0365BAF04489903672711E3DA0C424BA6BAF72088B8BC1D7.pygtex,
  858D8A04D024FCC4B65F61132724653CBE9D39A894725899493E3763BC89BE90.pygtex,
  CD365494647D607281AF6DD257FB6C7972711E3DA0C424BA6BAF72088B8BC1D7.pygtex}
\abx@aux@read@bbl@mdfivesum{73BE776D5C432BCEB100EE9B7D48976A}
\abx@aux@defaultrefcontext{0}{cytron}{nty/global//global/global}
\abx@aux@defaultrefcontext{0}{oledscreenpic}{nty/global//global/global}
\abx@aux@defaultrefcontext{0}{solidworks}{nty/global//global/global}
\abx@aux@defaultrefcontext{0}{pyatemPIP}{nty/global//global/global}
\abx@aux@defaultrefcontext{0}{c++analogwrite}{nty/global//global/global}
\abx@aux@defaultrefcontext{0}{arm}{nty/global//global/global}
\abx@aux@defaultrefcontext{0}{atemmini}{nty/global//global/global}
\abx@aux@defaultrefcontext{0}{atempic}{nty/global//global/global}
\abx@aux@defaultrefcontext{0}{azure}{nty/global//global/global}
\abx@aux@defaultrefcontext{0}{milegit}{nty/global//global/global}
\abx@aux@defaultrefcontext{0}{hbridgeDatasheet}{nty/global//global/global}
\abx@aux@defaultrefcontext{0}{hbridge}{nty/global//global/global}
\abx@aux@defaultrefcontext{0}{bibtex}{nty/global//global/global}
\abx@aux@defaultrefcontext{0}{blackmagic}{nty/global//global/global}
\abx@aux@defaultrefcontext{0}{github}{nty/global//global/global}
\abx@aux@defaultrefcontext{0}{c++wiki}{nty/global//global/global}
\abx@aux@defaultrefcontext{0}{chineseNY}{nty/global//global/global}
\abx@aux@defaultrefcontext{0}{pyatemgithub}{nty/global//global/global}
\abx@aux@defaultrefcontext{0}{c++delay}{nty/global//global/global}
\abx@aux@defaultrefcontext{0}{desklamp}{nty/global//global/global}
\abx@aux@defaultrefcontext{0}{pip}{nty/global//global/global}
\abx@aux@defaultrefcontext{0}{eagle}{nty/global//global/global}
\abx@aux@defaultrefcontext{0}{elgatolight}{nty/global//global/global}
\abx@aux@defaultrefcontext{0}{esp32}{nty/global//global/global}
\abx@aux@defaultrefcontext{0}{fastapi}{nty/global//global/global}
\abx@aux@defaultrefcontext{0}{fiveis}{nty/global//global/global}
\abx@aux@defaultrefcontext{0}{fiveIsLogo}{nty/global//global/global}
\abx@aux@defaultrefcontext{0}{fluentUI}{nty/global//global/global}
\abx@aux@defaultrefcontext{0}{git}{nty/global//global/global}
\abx@aux@defaultrefcontext{0}{gitbucket}{nty/global//global/global}
\abx@aux@defaultrefcontext{0}{gitlab}{nty/global//global/global}
\abx@aux@defaultrefcontext{0}{googlepayapi}{nty/global//global/global}
\abx@aux@defaultrefcontext{0}{hbridgebasics}{nty/global//global/global}
\abx@aux@defaultrefcontext{0}{atAglanceG}{nty/global//global/global}
\abx@aux@defaultrefcontext{0}{runDLLonLinux}{nty/global//global/global}
\abx@aux@defaultrefcontext{0}{lumacore}{nty/global//global/global}
\abx@aux@defaultrefcontext{0}{i2cconstraints}{nty/global//global/global}
\abx@aux@defaultrefcontext{0}{clockify}{nty/global//global/global}
\abx@aux@defaultrefcontext{0}{i2c}{nty/global//global/global}
\abx@aux@defaultrefcontext{0}{nextui}{nty/global//global/global}
\abx@aux@defaultrefcontext{0}{nextuiTabs}{nty/global//global/global}
\abx@aux@defaultrefcontext{0}{notificationlistener}{nty/global//global/global}
\abx@aux@defaultrefcontext{0}{winui3}{nty/global//global/global}
\abx@aux@defaultrefcontext{0}{fonLinux}{nty/global//global/global}
\abx@aux@defaultrefcontext{0}{KiCad}{nty/global//global/global}
\abx@aux@defaultrefcontext{0}{latex}{nty/global//global/global}
\abx@aux@defaultrefcontext{0}{rasp3b+}{nty/global//global/global}
\abx@aux@defaultrefcontext{0}{markdown}{nty/global//global/global}
\abx@aux@defaultrefcontext{0}{cytronDS}{nty/global//global/global}
\abx@aux@defaultrefcontext{0}{5vpsuDS}{nty/global//global/global}
\abx@aux@defaultrefcontext{0}{5vpsu}{nty/global//global/global}
\abx@aux@defaultrefcontext{0}{vscodeicon}{nty/global//global/global}
\abx@aux@defaultrefcontext{0}{miktex}{nty/global//global/global}
\abx@aux@defaultrefcontext{0}{dotnet}{nty/global//global/global}
\abx@aux@defaultrefcontext{0}{noctua40mm}{nty/global//global/global}
\abx@aux@defaultrefcontext{0}{noctua80mm}{nty/global//global/global}
\abx@aux@defaultrefcontext{0}{noctua80mmspec}{nty/global//global/global}
\abx@aux@defaultrefcontext{0}{np_bx1Dummy}{nty/global//global/global}
\abx@aux@defaultrefcontext{0}{apt}{nty/global//global/global}
\abx@aux@defaultrefcontext{0}{altium}{nty/global//global/global}
\abx@aux@defaultrefcontext{0}{googledrive}{nty/global//global/global}
\abx@aux@defaultrefcontext{0}{onedrive}{nty/global//global/global}
\abx@aux@defaultrefcontext{0}{pyatem}{nty/global//global/global}
\abx@aux@defaultrefcontext{0}{reactjs}{nty/global//global/global}
\abx@aux@defaultrefcontext{0}{termiusicon}{nty/global//global/global}
\abx@aux@defaultrefcontext{0}{sailer2009comparative}{nty/global//global/global}
\abx@aux@defaultrefcontext{0}{rbdtech}{nty/global//global/global}
\abx@aux@defaultrefcontext{0}{dockpsu}{nty/global//global/global}
\abx@aux@defaultrefcontext{0}{sonyzv1pic}{nty/global//global/global}
\abx@aux@defaultrefcontext{0}{reactstatehandler}{nty/global//global/global}
\abx@aux@defaultrefcontext{0}{termius}{nty/global//global/global}
\abx@aux@defaultrefcontext{0}{texstudio}{nty/global//global/global}
\abx@aux@defaultrefcontext{0}{i2cquickstart}{nty/global//global/global}
\abx@aux@defaultrefcontext{0}{reactuseffect}{nty/global//global/global}
\abx@aux@defaultrefcontext{0}{videomicro}{nty/global//global/global}
\abx@aux@defaultrefcontext{0}{vscode}{nty/global//global/global}
\abx@aux@defaultrefcontext{0}{vs}{nty/global//global/global}
\abx@aux@defaultrefcontext{0}{python}{nty/global//global/global}
\abx@aux@defaultrefcontext{0}{whatsanapi}{nty/global//global/global}
\abx@aux@defaultrefcontext{0}{nocutafanpinout}{nty/global//global/global}
\abx@aux@defaultrefcontext{0}{lttWhitefoam}{nty/global//global/global}
\abx@aux@defaultrefcontext{0}{WINE}{nty/global//global/global}
\abx@aux@defaultrefcontext{0}{reactcomponents}{nty/global//global/global}
\abx@aux@defaultrefcontext{0}{zotero}{nty/global//global/global}
\abx@aux@defaultrefcontext{0}{zv1}{nty/global//global/global}
\abx@aux@defaultrefcontext{0}{heightadjustableFoot}{nty/global//global/global}
\abx@aux@defaultlabelprefix{0}{cytron}{}
\abx@aux@defaultlabelprefix{0}{oledscreenpic}{}
\abx@aux@defaultlabelprefix{0}{solidworks}{}
\abx@aux@defaultlabelprefix{0}{pyatemPIP}{}
\abx@aux@defaultlabelprefix{0}{c++analogwrite}{}
\abx@aux@defaultlabelprefix{0}{arm}{}
\abx@aux@defaultlabelprefix{0}{atemmini}{}
\abx@aux@defaultlabelprefix{0}{atempic}{}
\abx@aux@defaultlabelprefix{0}{azure}{}
\abx@aux@defaultlabelprefix{0}{milegit}{}
\abx@aux@defaultlabelprefix{0}{hbridgeDatasheet}{}
\abx@aux@defaultlabelprefix{0}{hbridge}{}
\abx@aux@defaultlabelprefix{0}{bibtex}{}
\abx@aux@defaultlabelprefix{0}{blackmagic}{}
\abx@aux@defaultlabelprefix{0}{github}{}
\abx@aux@defaultlabelprefix{0}{c++wiki}{}
\abx@aux@defaultlabelprefix{0}{chineseNY}{}
\abx@aux@defaultlabelprefix{0}{pyatemgithub}{}
\abx@aux@defaultlabelprefix{0}{c++delay}{}
\abx@aux@defaultlabelprefix{0}{desklamp}{}
\abx@aux@defaultlabelprefix{0}{pip}{}
\abx@aux@defaultlabelprefix{0}{eagle}{}
\abx@aux@defaultlabelprefix{0}{elgatolight}{}
\abx@aux@defaultlabelprefix{0}{esp32}{}
\abx@aux@defaultlabelprefix{0}{fastapi}{}
\abx@aux@defaultlabelprefix{0}{fiveis}{}
\abx@aux@defaultlabelprefix{0}{fiveIsLogo}{}
\abx@aux@defaultlabelprefix{0}{fluentUI}{}
\abx@aux@defaultlabelprefix{0}{git}{}
\abx@aux@defaultlabelprefix{0}{gitbucket}{}
\abx@aux@defaultlabelprefix{0}{gitlab}{}
\abx@aux@defaultlabelprefix{0}{googlepayapi}{}
\abx@aux@defaultlabelprefix{0}{hbridgebasics}{}
\abx@aux@defaultlabelprefix{0}{atAglanceG}{}
\abx@aux@defaultlabelprefix{0}{runDLLonLinux}{}
\abx@aux@defaultlabelprefix{0}{lumacore}{}
\abx@aux@defaultlabelprefix{0}{i2cconstraints}{}
\abx@aux@defaultlabelprefix{0}{clockify}{}
\abx@aux@defaultlabelprefix{0}{i2c}{}
\abx@aux@defaultlabelprefix{0}{nextui}{}
\abx@aux@defaultlabelprefix{0}{nextuiTabs}{}
\abx@aux@defaultlabelprefix{0}{notificationlistener}{}
\abx@aux@defaultlabelprefix{0}{winui3}{}
\abx@aux@defaultlabelprefix{0}{fonLinux}{}
\abx@aux@defaultlabelprefix{0}{KiCad}{}
\abx@aux@defaultlabelprefix{0}{latex}{}
\abx@aux@defaultlabelprefix{0}{rasp3b+}{}
\abx@aux@defaultlabelprefix{0}{markdown}{}
\abx@aux@defaultlabelprefix{0}{cytronDS}{}
\abx@aux@defaultlabelprefix{0}{5vpsuDS}{}
\abx@aux@defaultlabelprefix{0}{5vpsu}{}
\abx@aux@defaultlabelprefix{0}{vscodeicon}{}
\abx@aux@defaultlabelprefix{0}{miktex}{}
\abx@aux@defaultlabelprefix{0}{dotnet}{}
\abx@aux@defaultlabelprefix{0}{noctua40mm}{}
\abx@aux@defaultlabelprefix{0}{noctua80mm}{}
\abx@aux@defaultlabelprefix{0}{noctua80mmspec}{}
\abx@aux@defaultlabelprefix{0}{np_bx1Dummy}{}
\abx@aux@defaultlabelprefix{0}{apt}{}
\abx@aux@defaultlabelprefix{0}{altium}{}
\abx@aux@defaultlabelprefix{0}{googledrive}{}
\abx@aux@defaultlabelprefix{0}{onedrive}{}
\abx@aux@defaultlabelprefix{0}{pyatem}{}
\abx@aux@defaultlabelprefix{0}{reactjs}{}
\abx@aux@defaultlabelprefix{0}{termiusicon}{}
\abx@aux@defaultlabelprefix{0}{sailer2009comparative}{}
\abx@aux@defaultlabelprefix{0}{rbdtech}{}
\abx@aux@defaultlabelprefix{0}{dockpsu}{}
\abx@aux@defaultlabelprefix{0}{sonyzv1pic}{}
\abx@aux@defaultlabelprefix{0}{reactstatehandler}{}
\abx@aux@defaultlabelprefix{0}{termius}{}
\abx@aux@defaultlabelprefix{0}{texstudio}{}
\abx@aux@defaultlabelprefix{0}{i2cquickstart}{}
\abx@aux@defaultlabelprefix{0}{reactuseffect}{}
\abx@aux@defaultlabelprefix{0}{videomicro}{}
\abx@aux@defaultlabelprefix{0}{vscode}{}
\abx@aux@defaultlabelprefix{0}{vs}{}
\abx@aux@defaultlabelprefix{0}{python}{}
\abx@aux@defaultlabelprefix{0}{whatsanapi}{}
\abx@aux@defaultlabelprefix{0}{nocutafanpinout}{}
\abx@aux@defaultlabelprefix{0}{lttWhitefoam}{}
\abx@aux@defaultlabelprefix{0}{WINE}{}
\abx@aux@defaultlabelprefix{0}{reactcomponents}{}
\abx@aux@defaultlabelprefix{0}{zotero}{}
\abx@aux@defaultlabelprefix{0}{zv1}{}
\abx@aux@defaultlabelprefix{0}{heightadjustableFoot}{}
\gdef \@abspage@last{136}
